﻿Time (s),Test Section Air Speed (m/s),Lift Force (N),Drag Force (N),Side Force (N)
0.05,0,-0.498971,1.057759,0.411138
0.1,0,-0.50032,1.057845,0.411686
0.15,0,-0.501486,1.058098,0.411762
0.2,0,-0.501481,1.057744,0.411478
0.25,0,-0.501608,1.057977,0.410727
0.3,0,-0.501765,1.058104,0.410007
0.35,0,-0.50138,1.057967,0.409521
0.4,0,-0.501273,1.05821,0.408633
0.451,0,-0.501157,1.058403,0.407655
0.501,0,-0.500933,1.058327,0.407163
0.551,0,-0.500411,1.057835,0.406838
0.601,0,-0.500137,1.057313,0.406757
0.651,0,-0.499554,1.057196,0.406504
0.701,0,-0.499027,1.056745,0.406478
0.751,0,-0.498966,1.056329,0.406666
0.801,0,-0.498464,1.055867,0.407046
0.852,0,-0.497988,1.055371,0.407634
0.903,0,-0.49743,1.055761,0.407437
0.954,0,-0.497075,1.056309,0.407594
1.004,0,-0.497131,1.057399,0.407847
1.054,0,-0.497952,1.057972,0.40807
1.104,0,-0.498632,1.059249,0.407883
1.154,0,-0.499402,1.060613,0.407158
1.204,0,-0.500345,1.061886,0.406539
1.254,0,-0.500852,1.063138,0.405946
1.304,0,-0.50138,1.063458,0.405799
1.354,0,-0.502166,1.064056,0.405414
1.404,0,-0.50249,1.064102,0.405104
1.454,0,-0.502348,1.064036,0.405388
1.504,0,-0.502632,1.063301,0.406027
1.554,0,-0.502176,1.062312,0.407198
1.604,0,-0.501679,1.061338,0.408086
1.654,0,-0.502024,1.060446,0.408821
1.704,0,-0.5021,1.059696,0.409429
1.754,0,-0.501856,1.058636,0.410053
1.804,0,-0.501932,1.057673,0.410499
1.854,0,-0.501917,1.056876,0.410661
1.905,0,-0.501441,1.056729,0.410474
1.955,0,-0.501481,1.056729,0.410083
2.005,0,-0.501653,1.056643,0.409977
2.055,0,-0.501065,1.056375,0.410048
2.105,0,-0.500756,1.056527,0.409825
2.155,0,-0.50066,1.056785,0.409566
2.205,0,-0.500639,1.057282,0.409155
2.255,0,-0.500492,1.057708,0.408664
2.305,0,-0.500518,1.05786,0.4084
2.355,0,-0.500807,1.05823,0.408116
2.405,0,-0.501238,1.058844,0.407528
2.456,0,-0.501674,1.059371,0.406747
2.506,0,-0.501998,1.059533,0.406529
2.556,0,-0.502581,1.060025,0.406144
2.606,0,-0.502774,1.060553,0.406032
2.656,0,-0.503788,1.061409,0.405941
2.706,0,-0.504782,1.062038,0.405961
2.756,0,-0.505025,1.062256,0.406017
2.806,0,-0.505401,1.0622,0.406473
2.856,0,-0.505791,1.062495,0.406965
2.906,0,-0.506131,1.062971,0.407203
2.956,0,-0.505684,1.062373,0.407812
3.006,0,-0.505766,1.06146,0.408319
3.057,0,-0.504757,1.060015,0.409014
3.107,0,-0.504001,1.059016,0.409267
3.157,0,-0.503717,1.058093,0.409029
3.207,0,-0.502526,1.057419,0.408572
3.257,0,-0.501866,1.056694,0.407954
3.307,0,-0.50138,1.055928,0.407143
3.357,0,-0.501273,1.056476,0.405839
3.407,0,-0.500573,1.057247,0.404546
3.457,0,-0.500594,1.058251,0.40297
3.507,0,-0.500036,1.058798,0.401753
3.557,0,-0.499615,1.059609,0.401367
3.607,0,-0.500082,1.060213,0.400764
3.658,0,-0.500173,1.060624,0.400414
3.708,0,-0.500279,1.061004,0.400556
3.758,0,-0.500594,1.060771,0.400987
3.808,0,-0.501304,1.060471,0.401443
3.858,0,-0.501446,1.060269,0.401895
3.908,0,-0.502308,1.060294,0.402397
3.958,0,-0.50283,1.059883,0.402965
4.008,0,-0.503144,1.05966,0.403669
4.058,0,-0.503382,1.059564,0.404354
4.109,0,-0.503291,1.059549,0.404699
4.159,0,-0.503104,1.059376,0.405332
4.209,0,-0.502627,1.059249,0.4059
4.259,0,-0.502404,1.059123,0.406803
4.309,0,-0.501278,1.05894,0.407518
4.359,0,-0.500305,1.059341,0.407437
4.409,0,-0.498946,1.05968,0.407036
4.459,0,-0.497983,1.059888,0.406747
4.509,0,-0.497247,1.060172,0.40662
4.559,0,-0.496345,1.060274,0.406169
4.609,0,-0.496142,1.060289,0.405758
4.659,0,-0.496558,1.06,0.405185
4.709,0,-0.497846,1.059812,0.404465
4.759,0,-0.499103,1.05932,0.40371
4.809,0,-0.500655,1.058524,0.404242
4.86,0,-0.501816,1.057891,0.404552
4.91,0,-0.503129,1.056942,0.404359
4.96,0,-0.504934,1.056912,0.403948
5.01,0,-0.505963,1.057029,0.40338
5.061,0,-0.506293,1.05749,0.402899
5.112,0,-0.50606,1.057906,0.402838
5.163,0,-0.505832,1.058327,0.403441
5.213,0,-0.505598,1.059178,0.402782
5.263,0,-0.505497,1.060147,0.402204
5.313,0,-0.505213,1.061333,0.402386
5.363,0,-0.504295,1.061886,0.402888
5.413,0,-0.503631,1.062271,0.403553
5.464,0,-0.503225,1.062505,0.403872
5.514,0,-0.503372,1.062657,0.403963
5.564,0,-0.503317,1.062626,0.403979
5.614,0,-0.503372,1.062687,0.404339
5.664,0,-0.503398,1.062424,0.404841
5.714,0,-0.503687,1.062124,0.405013
5.764,0,-0.504402,1.061896,0.405048
5.814,0.245266,-0.505147,1.061785,0.405282
5.864,0.818107,-0.505953,1.06181,0.405728
5.914,1.051319,-0.506166,1.061455,0.40658
5.965,1.288305,-0.506425,1.061531,0.407112
6.015,1.439762,-0.506384,1.060857,0.407863
6.065,1.547565,-0.506344,1.060152,0.408603
6.115,1.684341,-0.50606,1.059858,0.409216
6.165,1.77052,-0.505548,1.059787,0.410058
6.215,1.849412,-0.504599,1.059741,0.410758
6.265,1.940791,-0.502946,1.059513,0.411447
6.315,2.049664,-0.501212,1.060127,0.411503
6.365,2.115314,-0.499924,1.06039,0.41161
6.415,2.198766,-0.49888,1.060928,0.411762
6.465,2.295436,-0.497815,1.06184,0.411686
6.515,2.375759,-0.496613,1.062023,0.411736
6.565,2.466423,-0.495108,1.061881,0.411731
6.615,2.567218,-0.494281,1.061344,0.41167
6.665,2.650483,-0.494185,1.060958,0.411686
6.715,2.730098,-0.494499,1.060152,0.411513
6.765,2.811782,-0.494519,1.059706,0.411452
6.815,2.881686,-0.494651,1.060289,0.410682
6.865,2.95405,-0.49455,1.060608,0.40986
6.915,3.025186,-0.494692,1.061293,0.409155
6.965,3.077706,-0.495777,1.062439,0.408131
7.015,3.127402,-0.496619,1.064224,0.406869
7.065,3.182293,-0.497597,1.066201,0.405611
7.115,3.240006,-0.498931,1.068391,0.405216
7.165,3.315777,-0.500234,1.070344,0.404917
7.215,3.387837,-0.500974,1.071074,0.40514
7.265,3.445854,-0.502561,1.07189,0.405626
7.315,3.504429,-0.504158,1.072798,0.405596
7.366,3.572898,-0.504741,1.073188,0.405343
7.417,3.629005,-0.505182,1.073208,0.405414
7.467,3.687759,-0.504954,1.072149,0.405591
7.517,3.731167,-0.503935,1.070749,0.405246
7.567,3.746404,-0.503099,1.069243,0.404744
7.617,3.764404,-0.502581,1.068265,0.403821
7.667,3.774479,-0.501096,1.067104,0.402807
7.717,3.764202,-0.499144,1.065755,0.402488
7.767,3.752278,-0.497394,1.064507,0.403081
7.817,3.730353,-0.496015,1.063625,0.403649
7.867,3.694139,-0.495021,1.063965,0.403492
7.917,3.669176,-0.494601,1.064655,0.403446
7.967,3.664619,-0.494347,1.065699,0.40339
8.017,3.65133,-0.494479,1.066718,0.404141
8.067,3.651122,-0.494915,1.067818,0.40482
8.117,3.66607,-0.495944,1.068863,0.405059
8.167,3.675588,-0.497227,1.069999,0.40478
8.217,3.711778,-0.498079,1.070511,0.404308
8.267,3.753695,-0.498885,1.070607,0.404633
8.317,3.796549,-0.498997,1.070141,0.405018
8.368,3.836748,-0.498621,1.069345,0.405525
8.418,3.892759,-0.4978,1.068437,0.405555
8.468,3.938922,-0.49706,1.067915,0.405738
8.518,3.982835,-0.496015,1.067418,0.405931
8.568,4.026457,-0.495544,1.067093,0.406113
8.618,4.046966,-0.49495,1.067093,0.406468
8.668,4.061018,-0.494636,1.067408,0.406605
8.718,4.075953,-0.4949,1.068077,0.406362
8.768,4.085073,-0.495026,1.068503,0.405997
8.818,4.078933,-0.495549,1.068868,0.405708
8.869,4.084516,-0.496532,1.068985,0.405307
8.919,4.091019,-0.497481,1.069264,0.40517
8.97,4.100662,-0.497263,1.068802,0.405165
9.02,4.115268,-0.497617,1.068412,0.404714
9.071,4.132029,-0.497131,1.067286,0.404247
9.121,4.147075,-0.496583,1.066089,0.404273
9.172,4.155126,-0.496456,1.065248,0.404349
9.222,4.167537,-0.496046,1.064908,0.404222
9.272,4.170088,-0.494677,1.064386,0.403892
9.323,4.165532,-0.493602,1.063858,0.403076
9.373,4.157136,-0.493232,1.064173,0.402138
9.424,4.158415,-0.492405,1.06431,0.401961
9.474,4.177549,-0.492233,1.064974,0.401651
9.524,4.189894,-0.492091,1.065775,0.401342
9.575,4.215196,-0.491847,1.066576,0.400941
9.625,4.244108,-0.491386,1.066536,0.400784
9.675,4.269622,-0.49169,1.066505,0.401063
9.726,4.303466,-0.491822,1.066313,0.402021
9.776,4.338971,-0.491792,1.065937,0.403086
9.826,4.372625,-0.492273,1.066059,0.403705
9.876,4.387018,-0.492811,1.065988,0.404663
9.926,4.402055,-0.493232,1.065846,0.405114
9.976,4.406539,-0.494017,1.065953,0.405626
10.026,4.403952,-0.494874,1.06615,0.406458
10.076,4.417728,-0.4953,1.066602,0.407264
10.126,4.440023,-0.495853,1.067317,0.407609
10.176,4.462716,-0.496436,1.067778,0.407766
10.226,4.481568,-0.496664,1.067545,0.407827
10.276,4.498484,-0.496634,1.067555,0.407675
10.326,4.517691,-0.496669,1.067464,0.408202
10.376,4.539829,-0.495848,1.066825,0.408699
10.426,4.572503,-0.49529,1.066617,0.408522
10.476,4.588091,-0.494874,1.06616,0.407477
10.526,4.595699,-0.494251,1.065106,0.406686
10.576,4.598508,-0.493561,1.06432,0.406047
10.626,4.60115,-0.49274,1.063757,0.405626
10.676,4.618286,-0.492319,1.063007,0.405165
10.726,4.636341,-0.491639,1.061993,0.404602
10.776,4.662479,-0.491533,1.061126,0.404065
10.826,4.672731,-0.491239,1.060345,0.403786
10.877,4.687175,-0.490869,1.059736,0.404359
10.927,4.684095,-0.49059,1.059746,0.404815
10.977,4.695917,-0.490478,1.059528,0.405297
11.027,4.711903,-0.490767,1.059432,0.405814
11.077,4.71029,-0.490544,1.059341,0.406392
11.127,4.713514,-0.490641,1.059949,0.406504
11.177,4.705289,-0.490666,1.060766,0.406666
11.227,4.705612,-0.491082,1.061769,0.406747
11.277,4.715286,-0.491619,1.062758,0.406965
11.327,4.739547,-0.49201,1.06358,0.406864
11.377,4.745313,-0.49205,1.064168,0.406854
11.427,4.738104,-0.491614,1.064619,0.406854
11.477,4.75219,-0.491533,1.064964,0.406696
11.527,4.76193,-0.491264,1.065025,0.40662
11.577,4.777058,-0.491117,1.065253,0.40662
11.627,4.797683,-0.490387,1.06467,0.406671
11.677,4.812384,-0.489915,1.064158,0.406397
11.727,4.827983,-0.489748,1.063767,0.406397
11.777,4.85481,-0.489997,1.064087,0.40624
11.827,4.892214,-0.49057,1.06467,0.405961
11.877,4.9105,-0.490935,1.065598,0.405855
11.928,4.927485,-0.491472,1.066424,0.406093
11.978,4.947483,-0.491878,1.066951,0.40625
12.028,4.955306,-0.492912,1.068412,0.406559
12.078,4.962198,-0.493272,1.069522,0.406762
12.128,4.967094,-0.493125,1.070491,0.407224
12.178,4.964341,-0.492689,1.070643,0.407634
12.228,4.95883,-0.491974,1.070455,0.408182
12.278,4.962964,-0.491751,1.070526,0.408821
12.328,4.963576,-0.491132,1.070785,0.409181
12.378,4.962352,-0.49027,1.070749,0.409323
12.428,4.974276,-0.48883,1.070019,0.409389
12.478,4.978854,-0.487811,1.069482,0.409586
12.528,4.975497,-0.487162,1.068599,0.409637
12.578,4.977023,-0.486706,1.06866,0.409688
12.628,4.981142,-0.486696,1.068873,0.409561
12.678,4.983124,-0.485879,1.068346,0.4091
12.728,4.984343,-0.485555,1.067489,0.40839
12.778,4.976108,-0.48555,1.06724,0.407827
12.828,4.956992,-0.48556,1.067017,0.40732
12.878,4.944718,-0.485509,1.066744,0.406828
12.928,4.945486,-0.48557,1.066941,0.406179
12.979,4.945333,-0.485697,1.066662,0.405439
13.029,4.939954,-0.485692,1.066434,0.404714
13.079,4.925326,-0.486001,1.066176,0.404181
13.129,4.916065,-0.486224,1.066024,0.404131
13.179,4.91761,-0.486625,1.065532,0.404405
13.229,4.919772,-0.487248,1.065268,0.404501
13.279,4.923938,-0.487923,1.065187,0.404541
13.33,4.922087,-0.488552,1.065157,0.404663
13.38,4.918845,-0.488901,1.065146,0.404795
13.43,4.921932,-0.489094,1.065111,0.405013
13.48,4.938263,-0.489484,1.065385,0.405378
13.53,4.954539,-0.489591,1.065851,0.405479
13.58,4.977023,-0.489403,1.066302,0.405079
13.63,5.004266,-0.489287,1.066678,0.404749
13.68,5.026225,-0.489079,1.066911,0.404577
13.73,5.039506,-0.488663,1.067124,0.404181
13.78,5.053803,-0.488633,1.067281,0.404212
13.83,5.060262,-0.488643,1.067742,0.404323
13.88,5.062363,-0.488349,1.068199,0.404176
13.93,5.062963,-0.488607,1.068503,0.404349
13.981,5.040711,-0.488881,1.068934,0.404881
14.031,5.019118,-0.489201,1.069436,0.405393
14.081,5.01003,-0.489794,1.070009,0.405713
14.131,5.02048,-0.490458,1.069826,0.406428
14.182,5.028642,-0.490737,1.069583,0.406473
14.232,5.038903,-0.490904,1.068909,0.406382
14.282,5.04854,-0.491898,1.068625,0.406443
14.333,5.058911,-0.492486,1.068432,0.406321
14.383,5.083473,-0.493211,1.06826,0.405956
14.433,5.11104,-0.49383,1.068031,0.405733
14.483,5.119207,-0.493825,1.067966,0.405485
14.533,5.115348,-0.494083,1.068782,0.404993
14.585,5.113714,-0.494687,1.069639,0.405332
14.635,5.109256,-0.495204,1.070526,0.405687
14.685,5.097052,-0.494646,1.070729,0.405794
14.735,5.07854,-0.494078,1.070546,0.406103
14.786,5.047638,-0.493586,1.070126,0.406727
14.836,5.003203,-0.493059,1.069745,0.40696
14.886,4.958524,-0.493429,1.069101,0.407051
14.936,4.908643,-0.493475,1.068234,0.407127
14.986,4.85481,-0.493444,1.067611,0.406686
15.037,4.80417,-0.493652,1.06683,0.406281
15.088,4.762089,-0.494154,1.06614,0.406392
15.138,4.718829,-0.494945,1.066378,0.40587
15.188,4.689119,-0.4953,1.066779,0.404922
15.238,4.656285,-0.495985,1.067124,0.40446
15.288,4.629456,-0.496106,1.067428,0.404384
15.338,4.601315,-0.496522,1.067687,0.404394
15.388,4.566519,-0.496487,1.06756,0.404435
15.438,4.531959,-0.496578,1.067732,0.404257
15.488,4.489357,-0.496872,1.068234,0.40374
15.538,4.446006,-0.496598,1.067879,0.403649
15.588,4.389441,-0.496395,1.067565,0.403761
15.638,4.341421,-0.495721,1.067215,0.403816
15.689,4.297991,-0.494961,1.066886,0.403766
15.739,4.266775,-0.493987,1.066688,0.40336
15.789,4.240348,-0.49347,1.066449,0.403117
15.839,4.202203,-0.492593,1.06614,0.403081
15.89,4.163891,-0.49167,1.065653,0.403076
15.94,4.125407,-0.491011,1.065496,0.403056
15.99,4.098438,-0.490438,1.065273,0.403198
16.04,4.066065,-0.489819,1.065015,0.403183
16.09,4.030605,-0.489576,1.064888,0.403223
16.14,3.978064,-0.489642,1.064431,0.403903
16.19,3.923272,-0.489358,1.064295,0.404313
16.24,3.866722,-0.489124,1.064122,0.404719
16.29,3.808534,-0.488891,1.063919,0.405028
16.34,3.748836,-0.489074,1.063524,0.405429
16.39,3.673727,-0.489378,1.06292,0.405621
16.44,3.602115,-0.489819,1.062535,0.405804
16.49,3.516545,-0.49026,1.062287,0.405834
16.54,3.431276,-0.490154,1.062241,0.405682
16.59,3.336101,-0.490463,1.062114,0.405616
16.64,3.254508,-0.49132,1.062332,0.405535
16.691,3.172014,-0.492263,1.062702,0.405697
16.741,3.091249,-0.492856,1.063022,0.405799
16.791,3.023428,-0.49345,1.063706,0.405951
16.842,2.947358,-0.494372,1.064168,0.405992
16.892,2.879576,-0.495062,1.064295,0.406002
16.942,2.810701,-0.495959,1.064472,0.405748
16.993,2.766578,-0.496598,1.06469,0.405697
17.043,2.721739,-0.496771,1.06432,0.40589
17.094,2.68012,-0.496943,1.063909,0.405956
17.144,2.641585,-0.497298,1.064031,0.405915
17.195,2.589019,-0.49779,1.064051,0.405606
17.246,2.537161,-0.498048,1.064102,0.405743
17.296,2.479936,-0.498231,1.064345,0.405905
17.346,2.431063,-0.498708,1.064416,0.40627
17.396,2.356177,-0.499428,1.064371,0.406635
17.446,2.261769,-0.500001,1.06468,0.406483
17.496,2.169205,-0.500634,1.064558,0.4066
17.546,2.049664,-0.500746,1.063798,0.406762
17.596,1.933734,-0.500685,1.062981,0.407599
17.646,1.815841,-0.50071,1.062236,0.408157
17.696,1.709407,-0.501253,1.061572,0.408973
17.746,1.613873,-0.501486,1.061029,0.40983
17.796,1.533266,-0.501684,1.060826,0.410423
17.846,1.460191,-0.502181,1.060456,0.411381
17.896,1.348789,-0.502465,1.060705,0.411919
17.946,1.289483,-0.503438,1.061288,0.412512
17.996,1.246962,-0.504321,1.061886,0.412614
18.046,1.228553,-0.505051,1.062571,0.412466
18.096,1.174182,-0.504929,1.062981,0.411589
18.146,1.077718,-0.504812,1.063427,0.410646
18.196,0.985694,-0.504686,1.063458,0.409723
18.246,0.921167,-0.50462,1.063321,0.409059
18.297,0.940748,-0.504366,1.063093,0.408385
18.347,0.970161,-0.503504,1.062809,0.407153
18.397,0.977182,-0.503022,1.062682,0.406012
18.448,0.944776,-0.502424,1.062388,0.405119
18.499,0.961511,-0.502318,1.061739,0.40516
18.55,1.018289,-0.502226,1.060978,0.404694
18.6,1.067806,-0.501638,1.060172,0.404481
18.65,1.092418,-0.500746,1.060015,0.403482
18.7,1.088936,-0.500284,1.059696,0.402574
18.75,1.031628,-0.500239,1.05932,0.402564
18.8,1.033834,-0.499706,1.058585,0.402706
18.85,1.067094,-0.499488,1.058002,0.402757
18.9,1.115126,-0.499057,1.058251,0.402376
18.95,1.147354,-0.498596,1.058164,0.402909
19,1.153955,-0.498337,1.058362,0.403248
19.05,1.165742,-0.498444,1.057962,0.404181
19.1,1.159208,-0.498317,1.057571,0.405277
19.15,1.16509,-0.497688,1.057292,0.405926
19.2,1.097966,-0.497633,1.057444,0.406281
19.25,1.007793,-0.497318,1.05751,0.406783
19.3,0.843702,-0.49742,1.057434,0.407188
19.35,0.624333,-0.497922,1.05821,0.407183
19.4,0.440265,-0.498895,1.058824,0.40733
19.45,0,-0.49959,1.059817,0.407401
19.5,0,-0.500229,1.060776,0.407503
19.55,0,-0.501395,1.061638,0.407548
19.6,0,-0.50214,1.062216,0.407746
19.65,0,-0.503063,1.062768,0.407939
19.7,0.235793,-0.503859,1.063103,0.408299
19.75,0.59314,-0.504184,1.062398,0.40879
19.801,0.712937,-0.504016,1.061724,0.40913
19.851,0.840094,-0.503717,1.060836,0.409211
19.901,0.970161,-0.503707,1.060056,0.408953
19.952,1.113763,-0.503641,1.05927,0.409125
20.002,1.170943,-0.503443,1.058499,0.409262
20.053,1.266903,-0.502952,1.057693,0.409247
20.103,1.358328,-0.501877,1.057079,0.409161
20.153,1.382712,-0.50106,1.057338,0.40874
20.204,1.434477,-0.500006,1.057581,0.408339
20.254,1.517331,-0.499402,1.058261,0.408288
20.305,1.599692,-0.498834,1.059011,0.408461
20.355,1.650634,-0.498322,1.059807,0.408339
20.406,1.706739,-0.498256,1.061126,0.408228
20.456,1.743284,-0.49851,1.062535,0.408091
20.506,1.804933,-0.499204,1.06361,0.407979
20.556,1.889231,-0.499559,1.064513,0.407842
20.606,1.988345,-0.500933,1.065638,0.407695
20.656,2.064801,-0.501821,1.065912,0.406955
20.706,2.118902,-0.501978,1.065978,0.406225
20.756,2.17515,-0.501902,1.0661,0.405398
20.806,2.258745,-0.501334,1.065456,0.404288
20.856,2.357788,-0.500487,1.064705,0.403573
20.906,2.445082,-0.49961,1.064279,0.402878
20.956,2.530866,-0.49887,1.063427,0.402706
21.006,2.615579,-0.497247,1.062408,0.402569
21.056,2.678986,-0.495752,1.062124,0.40334
21.106,2.781637,-0.49527,1.062261,0.404095
21.156,2.889319,-0.494692,1.062429,0.405074
21.206,2.983217,-0.494651,1.063123,0.406559
21.256,3.066333,-0.494616,1.06395,0.407518
21.307,3.147012,-0.494986,1.064573,0.408567
21.358,3.233906,-0.495584,1.065841,0.409201
21.408,3.304074,-0.496406,1.067134,0.409607
21.458,3.408177,-0.497435,1.068077,0.409282
21.508,3.470454,-0.497633,1.06828,0.409049
21.559,3.541082,-0.497988,1.068402,0.408385
21.609,3.616005,-0.497628,1.068123,0.407665
21.66,3.683019,-0.498033,1.068184,0.407173
21.71,3.739504,-0.497988,1.068467,0.406417
21.76,3.786333,-0.497754,1.068574,0.405317
21.81,3.847029,-0.497617,1.068442,0.404567
21.86,3.888269,-0.497369,1.068351,0.404115
21.91,3.947013,-0.497516,1.068787,0.403456
21.96,3.995401,-0.49781,1.069395,0.40337
22.01,4.05203,-0.498383,1.069948,0.403122
22.061,4.123197,-0.497759,1.069791,0.403101
22.112,4.213754,-0.497273,1.069355,0.403243
22.162,4.308052,-0.496968,1.068397,0.404572
22.212,4.390825,-0.496852,1.067788,0.405845
22.262,4.472407,-0.496791,1.067154,0.407249
22.312,4.546683,-0.496745,1.066444,0.408694
22.363,4.61993,-0.496127,1.065025,0.409678
22.413,4.668991,-0.496081,1.064102,0.410606
22.463,4.71029,-0.497085,1.063595,0.411245
22.513,4.745633,-0.498033,1.063605,0.411924
22.563,4.785636,-0.499063,1.064599,0.411427
22.613,4.836314,-0.499326,1.065243,0.41089
22.664,4.894542,-0.499488,1.066125,0.409663
22.714,4.959443,-0.499316,1.066946,0.408537
22.765,5.021992,-0.499757,1.068686,0.407645
22.815,5.114457,-0.499453,1.07011,0.40693
22.865,5.210675,-0.498748,1.071642,0.40626
22.915,5.301855,-0.49779,1.072392,0.405469
22.965,5.388956,-0.496,1.072037,0.405211
23.016,5.469537,-0.494869,1.071677,0.405266
23.067,5.546756,-0.493581,1.071013,0.406235
23.117,5.630475,-0.492633,1.070729,0.4073
23.167,5.729827,-0.49096,1.069918,0.408309
23.217,5.811301,-0.489165,1.069157,0.409313
23.267,5.891261,-0.486787,1.068092,0.410312
23.317,5.973458,-0.484485,1.067504,0.411067
23.367,6.060306,-0.48305,1.06754,0.411681
23.417,6.153956,-0.481417,1.068239,0.411655
23.467,6.252399,-0.48014,1.069299,0.411224
23.517,6.34441,-0.478284,1.069634,0.410575
23.567,6.425065,-0.477097,1.069776,0.41017
23.617,6.518834,-0.476504,1.070014,0.409515
23.667,6.61357,-0.476519,1.070491,0.408354
23.717,6.70844,-0.477077,1.071246,0.407999
23.767,6.794167,-0.477103,1.071753,0.407751
23.817,6.875843,-0.477158,1.071915,0.407432
23.867,6.956996,-0.476966,1.071875,0.407158
23.917,7.030736,-0.477564,1.072372,0.406651
23.967,7.119516,-0.478005,1.073492,0.405586
24.018,7.199295,-0.478122,1.074309,0.404668
24.068,7.286543,-0.478299,1.074993,0.404273
24.118,7.372346,-0.477782,1.074963,0.402838
24.169,7.464187,-0.477148,1.075155,0.401256
24.219,7.564457,-0.476727,1.075434,0.400409
24.269,7.659449,-0.476448,1.075957,0.399512
24.319,7.775483,-0.475455,1.076347,0.399217
24.369,7.874103,-0.474243,1.076555,0.39902
24.419,7.971218,-0.473203,1.077128,0.398786
24.47,8.06528,-0.471535,1.07763,0.39904
24.52,8.161981,-0.470085,1.078593,0.400328
24.57,8.256538,-0.469441,1.07948,0.4019
24.62,8.338828,-0.468305,1.079871,0.402929
24.67,8.432663,-0.466789,1.080135,0.403968
24.72,8.510128,-0.46574,1.080439,0.404567
24.77,8.591404,-0.464949,1.080611,0.40554
24.82,8.676471,-0.464011,1.080672,0.406641
24.87,8.750911,-0.463478,1.08087,0.407168
24.921,8.82825,-0.462971,1.080956,0.406955
24.971,8.908244,-0.461389,1.080941,0.406402
25.022,8.989384,-0.459883,1.08125,0.406194
25.073,9.05488,-0.458509,1.080986,0.40589
25.123,9.125568,-0.456978,1.080753,0.40589
25.174,9.191333,-0.455021,1.080525,0.405794
25.224,9.255154,-0.453114,1.080251,0.405505
25.274,9.317316,-0.451396,1.079982,0.405282
25.324,9.36991,-0.449449,1.079283,0.405728
25.374,9.418904,-0.448647,1.078907,0.406215
25.425,9.472458,-0.448328,1.078532,0.406382
25.475,9.527623,-0.448125,1.078745,0.406377
25.525,9.573669,-0.447628,1.078598,0.405915
25.575,9.623995,-0.447709,1.078608,0.405454
25.625,9.669189,-0.447618,1.078821,0.405023
25.675,9.715502,-0.447294,1.078887,0.404653
25.725,9.759261,-0.447339,1.079425,0.403614
25.775,9.79802,-0.446665,1.079592,0.402746
25.825,9.822794,-0.445372,1.079851,0.402047
25.875,9.848278,-0.443947,1.079917,0.401743
25.925,9.872542,-0.443181,1.080347,0.402001
25.975,9.888685,-0.441782,1.080566,0.402067
26.025,9.906642,-0.440631,1.080408,0.40226
26.075,9.926632,-0.43947,1.080307,0.402549
26.125,9.950018,-0.438334,1.080434,0.402473
26.175,9.972588,-0.437416,1.080718,0.402239
26.225,10.003841,-0.437041,1.080839,0.401961
26.276,10.029243,-0.437112,1.081047,0.401697
26.327,10.052542,-0.436798,1.08123,0.401058
26.377,10.079705,-0.437411,1.081554,0.400698
26.427,10.100782,-0.438111,1.082036,0.400455
26.477,10.118963,-0.439216,1.082573,0.400069
26.527,10.131265,-0.440073,1.082523,0.401088
26.578,10.139509,-0.441092,1.082401,0.402336
26.628,10.144227,-0.441924,1.082289,0.403598
26.678,10.152684,-0.442269,1.082102,0.404617
26.728,10.16644,-0.442776,1.081742,0.405951
26.778,10.173609,-0.442477,1.08128,0.407031
26.828,10.180326,-0.442421,1.080895,0.407913
26.878,10.180252,-0.4416,1.080489,0.408943
26.928,10.184131,-0.441016,1.080596,0.408765
26.978,10.191139,-0.440337,1.080799,0.408481
27.028,10.195609,-0.439541,1.080946,0.408273
27.078,10.196652,-0.439095,1.080941,0.408238
27.128,10.190319,-0.438684,1.081012,0.407969
27.178,10.189052,-0.438978,1.081255,0.407842
27.228,10.187262,-0.438517,1.081321,0.407558
27.278,10.194566,-0.438922,1.081438,0.40694
27.328,10.19546,-0.439014,1.081544,0.406813
27.379,10.192927,-0.439044,1.081549,0.406641
27.429,10.188977,-0.439181,1.081504,0.406346
27.479,10.184503,-0.439358,1.081945,0.405946
27.529,10.184429,-0.439369,1.082573,0.40549
27.579,10.180102,-0.438932,1.082974,0.40482
27.629,10.177715,-0.438755,1.083628,0.404491
27.68,10.167784,-0.438167,1.0841,0.404202
27.73,10.161807,-0.438045,1.084495,0.403796
27.78,10.161358,-0.437908,1.08487,0.403076
27.83,10.160985,-0.437665,1.085606,0.402285
27.88,10.160686,-0.437305,1.085991,0.401398
27.93,10.158069,-0.436975,1.0859,0.401033
27.98,10.15777,-0.43656,1.085945,0.401159
28.031,10.154928,-0.436499,1.085839,0.401038
28.081,10.153956,-0.436554,1.085976,0.401504
28.131,10.151861,-0.436483,1.085874,0.402077
28.181,10.147446,-0.436646,1.08595,0.403152
28.231,10.146922,-0.437148,1.085722,0.404516
28.282,10.14505,-0.437771,1.085271,0.406397
28.332,10.143628,-0.438456,1.084779,0.407822
28.382,10.141082,-0.43944,1.084135,0.408826
28.432,10.139134,-0.44052,1.0834,0.410099
28.482,10.135388,-0.441366,1.082609,0.410707
28.532,10.129091,-0.442142,1.081874,0.411087
28.582,10.117612,-0.442791,1.081032,0.411194
28.632,10.097999,-0.443207,1.080292,0.411133
28.682,10.075937,-0.443628,1.080003,0.410372
28.733,10.046042,-0.444125,1.080388,0.409272
28.783,10.012417,-0.444591,1.081012,0.408075
28.833,9.975786,-0.44448,1.081742,0.406671
28.883,9.937415,-0.444748,1.082249,0.405302
28.933,9.896593,-0.445123,1.082518,0.404683
28.983,9.85275,-0.445306,1.082482,0.404359
29.034,9.809253,-0.445808,1.082421,0.403958
29.085,9.762374,-0.446209,1.082092,0.40406
29.135,9.717378,-0.446756,1.081701,0.404643
29.185,9.66911,-0.447542,1.081007,0.405505
29.235,9.617126,-0.448992,1.080119,0.406316
29.285,9.561047,-0.450346,1.07908,0.407827
29.335,9.499921,-0.451761,1.078735,0.408263
29.386,9.440169,-0.453231,1.078593,0.40843
29.436,9.377607,-0.454412,1.078553,0.408755
29.486,9.31919,-0.455923,1.078532,0.408836
29.536,9.265079,-0.457206,1.077883,0.408638
29.586,9.209,-0.458109,1.077609,0.408253
29.636,9.154569,-0.458636,1.077706,0.40765
29.686,9.097893,-0.459219,1.07836,0.406275
29.736,9.042626,-0.459518,1.078421,0.405272
29.786,8.982453,-0.459833,1.078654,0.40444
29.836,8.919236,-0.460142,1.078578,0.403634
29.886,8.850591,-0.459534,1.078502,0.402711
29.936,8.773102,-0.459082,1.078603,0.402082
29.986,8.699988,-0.458798,1.078111,0.401966
30.036,8.625725,-0.458601,1.077437,0.402478
30.086,8.559607,-0.458276,1.076494,0.403218
30.136,8.499322,-0.458063,1.075637,0.404065
30.186,8.444904,-0.458236,1.074613,0.404729
30.236,8.395291,-0.458575,1.073888,0.405312
30.286,8.343563,-0.45966,1.073249,0.406159
30.337,8.293436,-0.460644,1.072818,0.407066
30.387,8.233785,-0.461749,1.073082,0.407442
30.438,8.176764,-0.463063,1.07333,0.407472
30.488,8.107641,-0.464467,1.073523,0.407634
30.538,8.033481,-0.466003,1.073746,0.407868
30.588,7.956244,-0.467256,1.07403,0.407964
30.638,7.881238,-0.468402,1.074121,0.407928
30.688,7.811444,-0.469771,1.074096,0.407812
30.738,7.737685,-0.471023,1.074045,0.40733
30.788,7.674506,-0.471763,1.073736,0.406772
30.838,7.602816,-0.471926,1.073269,0.40624
30.889,7.543241,-0.471809,1.072742,0.405692
30.939,7.478115,-0.471535,1.072559,0.405084
30.989,7.407907,-0.471251,1.072392,0.404896
31.04,7.330917,-0.471033,1.072225,0.404866
31.09,7.250492,-0.470298,1.071981,0.405033
31.14,7.179539,-0.469781,1.071794,0.40518
31.19,7.105313,-0.470039,1.071647,0.405662
31.24,7.029871,-0.470881,1.071728,0.406265
31.29,6.951645,-0.472144,1.07189,0.406615
31.34,6.888314,-0.473655,1.071647,0.407046
31.39,6.834627,-0.475125,1.071312,0.407153
31.441,6.786113,-0.476606,1.07114,0.407148
31.491,6.742208,-0.478183,1.071282,0.406828
31.541,6.694159,-0.47947,1.07115,0.407112
31.591,6.65079,-0.479983,1.070486,0.407371
31.641,6.620457,-0.479927,1.069771,0.407285
31.691,6.579604,-0.479683,1.069406,0.407437
31.742,6.5193,-0.479202,1.069101,0.407508
31.792,6.457728,-0.479288,1.068827,0.407776
31.843,6.387957,-0.479313,1.068579,0.408075
31.893,6.318979,-0.479318,1.068209,0.408202
31.943,6.247295,-0.479557,1.067763,0.407964
31.993,6.168995,-0.480403,1.068016,0.407675
32.043,6.085945,-0.482148,1.068265,0.407619
32.093,6.021077,-0.483821,1.068102,0.40729
32.144,5.982479,-0.48559,1.068118,0.406818
32.194,5.943758,-0.486706,1.068397,0.406423
32.244,5.920711,-0.487781,1.068498,0.405839
32.294,5.894741,-0.488932,1.06864,0.405601
32.344,5.885199,-0.49026,1.069461,0.405018
32.394,5.885199,-0.490788,1.069867,0.404394
32.444,5.894097,-0.490767,1.070323,0.403705
32.495,5.893839,-0.490727,1.070754,0.403695
32.545,5.884811,-0.490732,1.070764,0.404298
32.596,5.879001,-0.490651,1.070435,0.404516
32.646,5.877062,-0.490367,1.070095,0.405226
32.697,5.88223,-0.489885,1.069664,0.405936
32.747,5.882488,-0.488861,1.068822,0.407051
32.798,5.883004,-0.488653,1.068153,0.407994
32.848,5.886876,-0.487938,1.067246,0.408882
32.898,5.902724,-0.487284,1.066657,0.409029
32.948,5.918274,-0.486422,1.066754,0.408294
32.999,5.947335,-0.485808,1.06684,0.407888
33.049,5.973839,-0.485489,1.067048,0.40734
33.099,6.004655,-0.485555,1.067367,0.406706
33.149,6.041226,-0.485783,1.067844,0.405986
33.199,6.083198,-0.485474,1.06828,0.405419
33.249,6.12203,-0.485753,1.068868,0.405033
33.299,6.156794,-0.485743,1.069299,0.404795
33.349,6.199698,-0.4859,1.069451,0.405028
33.399,6.234029,-0.485854,1.069938,0.405114
33.449,6.271563,-0.485803,1.070399,0.405261
33.499,6.307189,-0.48558,1.070734,0.405429
33.549,6.331947,-0.485961,1.070917,0.405697
33.599,6.35398,-0.486194,1.071069,0.406022
33.649,6.372958,-0.486118,1.07154,0.406083
33.699,6.399955,-0.486179,1.071931,0.406468
33.749,6.425538,-0.485986,1.072301,0.406772
33.8,6.451491,-0.485707,1.072351,0.407006
33.85,6.480622,-0.485195,1.072615,0.40663
33.901,6.512423,-0.484348,1.07299,0.406199
33.951,6.554506,-0.48268,1.072853,0.405545
34.001,6.602536,-0.481306,1.072889,0.404805
34.052,6.663682,-0.479942,1.072615,0.404496
34.103,6.717266,-0.478619,1.072387,0.403928
34.153,6.774687,-0.477402,1.072133,0.403401
34.203,6.837404,-0.476707,1.07227,0.402959
34.253,6.89746,-0.476165,1.072159,0.403223
34.303,6.957651,-0.475749,1.071976,0.403416
34.353,7.024359,-0.475936,1.073036,0.403791
34.403,7.091403,-0.476261,1.073989,0.404029
34.454,7.150918,-0.476636,1.074871,0.403908
34.504,7.225832,-0.477194,1.075678,0.404075
34.554,7.301642,-0.477711,1.076438,0.404192
34.604,7.374407,-0.477336,1.076793,0.404521
34.654,7.451559,-0.476961,1.077315,0.404526
34.704,7.536592,-0.476758,1.077549,0.404967
34.754,7.621175,-0.475982,1.076742,0.405241
34.804,7.703844,-0.475085,1.07586,0.406316
34.854,7.787196,-0.474015,1.075054,0.407604
34.904,7.859524,-0.472727,1.074537,0.408339
34.954,7.926691,-0.47188,1.074405,0.409161
35.004,7.997378,-0.472057,1.07443,0.409678
35.054,8.064997,-0.472159,1.074593,0.410094
35.104,8.125514,-0.472382,1.075135,0.410139
35.154,8.182799,-0.472859,1.076068,0.41017
35.204,8.234891,-0.473396,1.077143,0.409343
35.254,8.292062,-0.474299,1.078411,0.408091
35.304,8.354389,-0.474826,1.079338,0.407239
35.354,8.42951,-0.474532,1.079546,0.406321
35.404,8.506914,-0.473391,1.079633,0.405571
35.454,8.591227,-0.472022,1.079237,0.405028
35.504,8.682859,-0.469852,1.078837,0.404648
35.554,8.776564,-0.467322,1.078568,0.404415
35.604,8.882372,-0.464244,1.078238,0.404384
35.654,8.983721,-0.460958,1.077949,0.40477
35.704,9.081934,-0.458165,1.077944,0.40519
35.754,9.170237,-0.455579,1.078329,0.405611
35.804,9.257288,-0.453282,1.078948,0.405951
35.854,9.340357,-0.450863,1.079825,0.406382
35.904,9.418662,-0.449459,1.080743,0.406595
35.954,9.495202,-0.448379,1.081331,0.407056
36.004,9.568988,-0.448074,1.082097,0.407219
36.054,9.648272,-0.447973,1.082518,0.407269
36.104,9.738927,-0.447861,1.082771,0.407295
36.154,9.833305,-0.44779,1.083141,0.40729
36.204,9.929616,-0.447765,1.08338,0.407599
36.254,10.024395,-0.448176,1.083704,0.407087
36.304,10.120239,-0.448029,1.083993,0.406803
36.355,10.222096,-0.447836,1.0845,0.405753
36.405,10.321402,-0.44666,1.084804,0.405165
36.455,10.423625,-0.445468,1.085342,0.405054
36.505,10.517997,-0.444094,1.086042,0.40481
36.555,10.609454,-0.442756,1.086544,0.404303
36.606,10.701194,-0.441209,1.086919,0.403735
36.657,10.800385,-0.439526,1.087284,0.404055
36.707,10.899509,-0.437406,1.087639,0.404029
36.757,10.994356,-0.434952,1.087598,0.404648
36.807,11.096608,-0.433208,1.087684,0.405211
36.858,11.194535,-0.430531,1.087695,0.405054
36.908,11.288719,-0.427707,1.08771,0.405099
36.958,11.387195,-0.424832,1.087791,0.405703
37.008,11.484694,-0.422494,1.088592,0.405687
37.058,11.574156,-0.419711,1.089292,0.40552
37.108,11.668661,-0.417236,1.089895,0.405449
37.158,11.761439,-0.414742,1.09097,0.405383
37.208,11.849388,-0.411933,1.091964,0.405292
37.258,11.940125,-0.410437,1.093155,0.405566
37.308,12.037878,-0.408885,1.094139,0.40549
37.358,12.137722,-0.407445,1.095087,0.405185
37.409,12.237559,-0.404834,1.095148,0.405155
37.459,12.343788,-0.402811,1.095052,0.405378
37.509,12.446488,-0.400773,1.095113,0.405814
37.559,12.556455,-0.399302,1.095153,0.405946
37.61,12.665708,-0.398217,1.095102,0.406128
37.66,12.776107,-0.39591,1.094753,0.40588
37.71,12.883084,-0.394039,1.094621,0.405672
37.76,12.987894,-0.392127,1.094499,0.405505
37.81,13.094823,-0.39125,1.094824,0.405449
37.86,13.197433,-0.39016,1.095452,0.405145
37.91,13.301022,-0.389308,1.095919,0.404714
37.961,13.397406,-0.388162,1.096375,0.404334
38.011,13.489949,-0.386824,1.097065,0.403624
38.061,13.577442,-0.386023,1.097734,0.403548
38.111,13.663097,-0.384542,1.098048,0.403821
38.161,13.747113,-0.38328,1.098571,0.404004
38.211,13.828477,-0.38154,1.099144,0.404435
38.262,13.912423,-0.379761,1.099686,0.404673
38.312,13.994508,-0.378062,1.100371,0.404937
38.362,14.078165,-0.376465,1.10102,0.405388
38.413,14.168084,-0.374523,1.101369,0.405855
38.463,14.255625,-0.372799,1.101694,0.406164
38.513,14.345544,-0.372013,1.102363,0.406341
38.563,14.432745,-0.370872,1.102931,0.406306
38.613,14.51916,-0.369584,1.103175,0.406057
38.664,14.605689,-0.36817,1.103195,0.405961
38.714,14.690984,-0.366953,1.103114,0.405931
38.764,14.774296,-0.365746,1.102936,0.405784
38.814,14.849572,-0.36496,1.102957,0.406199
38.864,14.923757,-0.364022,1.103464,0.406499
38.914,14.992053,-0.362263,1.104026,0.406615
38.964,15.056509,-0.360975,1.104757,0.407041
39.015,15.111847,-0.360498,1.105639,0.407355
39.065,15.150298,-0.360174,1.106754,0.407264
39.115,15.178747,-0.35956,1.107768,0.407386
39.165,15.199649,-0.358876,1.108788,0.407381
39.215,15.21633,-0.358135,1.10972,0.407056
39.265,15.223217,-0.357116,1.110324,0.406554
39.316,15.222967,-0.356635,1.110567,0.406326
39.366,15.218127,-0.355565,1.110588,0.40623
39.416,15.212236,-0.354216,1.110593,0.406275
39.466,15.214233,-0.353222,1.110268,0.407188
39.516,15.217178,-0.351823,1.110096,0.407614
39.566,15.218776,-0.35051,1.109938,0.408441
39.616,15.215781,-0.349196,1.109923,0.409044
39.666,15.218975,-0.348968,1.110009,0.409551
39.716,15.223815,-0.348684,1.110258,0.409901
39.766,15.225512,-0.348897,1.109964,0.409921
39.816,15.227856,-0.348958,1.109492,0.409303
39.866,15.225312,-0.348882,1.109355,0.407903
39.916,15.222867,-0.349795,1.109208,0.406646
39.966,15.218426,-0.35088,1.10894,0.405008
40.016,15.216879,-0.351853,1.108478,0.403502
40.066,15.210938,-0.352142,1.107702,0.402224
40.116,15.201448,-0.352122,1.106952,0.400911
40.166,15.19785,-0.351584,1.106668,0.399542
40.216,15.191002,-0.351138,1.106698,0.398974
40.267,15.185201,-0.350829,1.106658,0.398406
40.317,15.179998,-0.349952,1.10647,0.398006
40.367,15.176345,-0.349024,1.106496,0.397889
40.417,15.175194,-0.348704,1.106714,0.398006
40.467,15.177446,-0.348745,1.107104,0.398462
40.517,15.18465,-0.349485,1.10756,0.398969
40.567,15.186201,-0.350961,1.108032,0.399932
40.617,15.190702,-0.352436,1.108245,0.401063
40.667,15.194001,-0.353937,1.108722,0.402797
40.717,15.192502,-0.355808,1.109406,0.404744
40.767,15.192502,-0.357659,1.109994,0.405997
40.817,15.189552,-0.359383,1.110603,0.407335
40.867,15.1837,-0.360331,1.111414,0.408253
40.917,15.173742,-0.360929,1.11222,0.408917
40.968,15.167384,-0.361558,1.113229,0.409135
41.018,15.161373,-0.362557,1.114324,0.408836
41.068,15.155461,-0.3628,1.114867,0.407954
41.118,15.153757,-0.362476,1.114989,0.406473
41.169,15.152103,-0.3621,1.114857,0.405905
41.219,15.150799,-0.361446,1.114193,0.40478
41.269,15.148192,-0.361147,1.113057,0.40411
41.319,15.148995,-0.360873,1.111642,0.403796
41.369,15.150599,-0.360128,1.109812,0.403837
41.42,15.151401,-0.359124,1.108133,0.403968
41.47,15.152303,-0.35883,1.106577,0.404268
41.52,15.150599,-0.359094,1.105471,0.404957
41.57,15.145133,-0.359428,1.104574,0.405297
41.621,15.133293,-0.359854,1.104214,0.40588
41.672,15.120238,-0.360478,1.104168,0.405758
41.722,15.101943,-0.360919,1.104199,0.405449
41.772,15.075415,-0.361451,1.104655,0.404805
41.822,15.040661,-0.361933,1.105005,0.404039
41.872,14.999803,-0.362638,1.105375,0.403497
41.922,14.951977,-0.362907,1.105355,0.402853
41.972,14.898696,-0.36347,1.105051,0.402407
42.023,14.845889,-0.363794,1.104473,0.402118
42.073,14.789865,-0.364037,1.103636,0.402006
42.123,14.730327,-0.364575,1.103012,0.402062
42.173,14.670807,-0.365259,1.102206,0.402224
42.223,14.610472,-0.365619,1.101141,0.402686
42.273,14.550044,-0.365873,1.100051,0.403203
42.323,14.489941,-0.367009,1.099671,0.403659
42.373,14.428113,-0.36781,1.100092,0.403401
42.423,14.361842,-0.368722,1.100599,0.402848
42.473,14.292022,-0.369863,1.101344,0.402589
42.523,14.220203,-0.371065,1.101821,0.402239
42.573,14.143779,-0.372317,1.101866,0.402174
42.623,14.066561,-0.374335,1.10212,0.402001
42.673,13.986962,-0.376064,1.102581,0.401854
42.724,13.909092,-0.376739,1.102363,0.40193
42.774,13.834573,-0.377854,1.101593,0.402407
42.824,13.762189,-0.379472,1.100553,0.403259
42.874,13.693582,-0.381388,1.099524,0.404207
42.924,13.626303,-0.383472,1.098763,0.405277
42.974,13.563114,-0.385647,1.098672,0.405566
43.024,13.507335,-0.38764,1.098718,0.405981
43.074,13.452568,-0.389542,1.098124,0.406184
43.124,13.396669,-0.391803,1.097409,0.40624
43.174,13.339511,-0.39374,1.096811,0.40659
43.224,13.281193,-0.395149,1.096715,0.406615
43.275,13.219342,-0.395981,1.096573,0.406128
43.325,13.157605,-0.39627,1.096162,0.405383
43.375,13.097143,-0.396326,1.09528,0.405419
43.425,13.024509,-0.396311,1.094169,0.405251
43.475,12.953755,-0.396878,1.093962,0.405023
43.526,12.881079,-0.397771,1.094352,0.404876
43.576,12.804136,-0.398379,1.094357,0.404653
43.626,12.732933,-0.399368,1.094139,0.40481
43.676,12.664748,-0.400737,1.094038,0.405353
43.726,12.594808,-0.402573,1.093738,0.406316
43.776,12.5175,-0.404408,1.093688,0.407117
43.827,12.445878,-0.406157,1.093749,0.407792
43.877,12.369175,-0.407699,1.093328,0.408344
43.927,12.294959,-0.409184,1.09244,0.408846
43.978,12.225325,-0.411273,1.091959,0.409115
44.029,12.146292,-0.41322,1.091457,0.408998
44.08,12.062397,-0.414529,1.090575,0.408795
44.13,11.977914,-0.415669,1.090062,0.408481
44.18,11.902216,-0.417454,1.089596,0.408238
44.23,11.829693,-0.419457,1.089028,0.408517
44.281,11.760211,-0.420943,1.088486,0.409191
44.331,11.688107,-0.421845,1.087978,0.409642
44.381,11.613921,-0.422241,1.087228,0.410225
44.431,11.544259,-0.422641,1.086533,0.410768
44.481,11.475696,-0.423584,1.086052,0.411381
44.531,11.411914,-0.42474,1.085677,0.411711
44.582,11.343891,-0.425369,1.085048,0.411757
44.632,11.271684,-0.425526,1.084378,0.411158
44.683,11.201318,-0.426535,1.083892,0.410251
44.733,11.129141,-0.428209,1.083719,0.409323
44.783,11.058555,-0.429796,1.083679,0.408344
44.833,10.99104,-0.431028,1.083476,0.407847
44.883,10.931726,-0.432108,1.083334,0.407214
44.933,10.871111,-0.432665,1.083385,0.406448
44.983,10.815915,-0.433,1.083587,0.405855
45.033,10.767564,-0.433669,1.083998,0.405738
45.083,10.721474,-0.433563,1.084135,0.405383
45.133,10.690968,-0.43297,1.084008,0.405591
45.183,10.667213,-0.432833,1.083892,0.406002
45.233,10.659307,-0.432995,1.084054,0.405758
45.283,10.653248,-0.433147,1.084338,0.40517
45.334,10.656527,-0.433208,1.084049,0.40482
45.385,10.661729,-0.433193,1.083359,0.404445
45.435,10.673904,-0.432645,1.082289,0.403994
45.485,10.696508,-0.43263,1.081828,0.404161
45.535,10.718285,-0.432752,1.081433,0.404009
45.585,10.748501,-0.432539,1.081149,0.40337
45.635,10.764742,-0.432245,1.080758,0.403294
45.685,10.786451,-0.431951,1.080109,0.403948
45.735,10.809593,-0.431631,1.079937,0.404481
45.785,10.839485,-0.43156,1.080292,0.405525
45.835,10.872438,-0.431651,1.081392,0.406194
45.885,10.907311,-0.430805,1.081722,0.406529
45.935,10.950053,-0.429993,1.082295,0.406747
45.985,10.994287,-0.429527,1.082969,0.407366
46.035,11.051478,-0.428761,1.083435,0.407695
46.085,11.112203,-0.427428,1.084338,0.407634
46.135,11.176405,-0.426758,1.085078,0.407771
46.186,11.24794,-0.425831,1.085666,0.407168
46.236,11.318621,-0.425075,1.085773,0.407051
46.286,11.387262,-0.424882,1.086645,0.407097
46.336,11.451181,-0.424385,1.087426,0.40734
46.386,11.513361,-0.422996,1.088207,0.407482
46.436,11.573237,-0.421987,1.089363,0.407497
46.486,11.633785,-0.421627,1.090397,0.407817
46.536,11.696228,-0.420415,1.091259,0.40766
46.586,11.749744,-0.419508,1.092785,0.407609
46.636,11.807457,-0.418382,1.094164,0.407224
46.686,11.870842,-0.417038,1.094773,0.406757
46.736,11.937835,-0.416095,1.095077,0.406103
46.786,12.006858,-0.415325,1.095016,0.405109
46.836,12.077437,-0.414047,1.094722,0.40481
46.886,12.147855,-0.412262,1.094033,0.404227
46.937,12.221038,-0.411167,1.093744,0.404399
46.987,12.303481,-0.40958,1.092699,0.404546
47.037,12.38145,-0.407973,1.092197,0.404744
47.087,12.455211,-0.406228,1.091933,0.404795
47.137,12.527084,-0.403967,1.092136,0.40477
47.188,12.6015,-0.40206,1.09239,0.405282
47.238,12.678834,-0.40022,1.09276,0.404983
47.288,12.7582,-0.398536,1.093084,0.404612
47.338,12.837016,-0.396539,1.093003,0.403816
47.388,12.910175,-0.394688,1.0931,0.403127
47.438,12.989414,-0.392624,1.092841,0.402792
47.488,13.074622,-0.391276,1.092927,0.402807
47.538,13.164357,-0.389973,1.092658,0.402899
47.588,13.254459,-0.388492,1.092385,0.402873
47.638,13.343041,-0.387534,1.091685,0.403963
47.688,13.432736,-0.386667,1.091609,0.405251
47.738,13.518914,-0.385551,1.091705,0.40662
47.788,13.609124,-0.384689,1.091893,0.407959
47.838,13.700237,-0.384446,1.092248,0.408689
47.888,13.787663,-0.383553,1.092329,0.409019
47.938,13.872512,-0.383072,1.092552,0.40951
47.988,13.953635,-0.38261,1.093348,0.409891
48.038,14.034667,-0.381535,1.095011,0.408927
48.088,14.111252,-0.380131,1.096365,0.407771
48.138,14.190154,-0.378772,1.097714,0.406656
48.188,14.270323,-0.377155,1.099103,0.405606
48.238,14.34872,-0.374924,1.100523,0.405221
48.288,14.42727,-0.372464,1.102084,0.405043
48.338,14.506024,-0.369539,1.103616,0.404765
48.388,14.587893,-0.367039,1.10466,0.404511
48.438,14.667907,-0.364707,1.105269,0.404704
48.488,14.751967,-0.362339,1.105877,0.405043
48.538,14.833657,-0.359646,1.106582,0.405495
48.588,14.911181,-0.35667,1.107048,0.405839
48.638,14.985567,-0.354287,1.107302,0.405429
48.688,15.058577,-0.352406,1.107505,0.404881
48.738,15.131687,-0.35053,1.107905,0.404465
48.788,15.204046,-0.348142,1.108392,0.404136
48.838,15.280585,-0.346068,1.108909,0.403958
48.888,15.354567,-0.344486,1.109523,0.403593
48.938,15.431886,-0.343614,1.110004,0.402721
48.989,15.510289,-0.343289,1.110593,0.401687
49.039,15.591025,-0.34223,1.111277,0.401195
49.089,15.675078,-0.340835,1.112119,0.400952
49.139,15.760224,-0.339877,1.113026,0.40051
49.189,15.845775,-0.338559,1.113782,0.399912
49.239,15.931868,-0.337063,1.114406,0.399684
49.289,16.018542,-0.335288,1.115049,0.399532
49.34,16.105409,-0.333321,1.115886,0.400034
49.39,16.194672,-0.331343,1.117098,0.401276
49.44,16.282372,-0.329695,1.1183,0.402407
49.49,16.370948,-0.328337,1.11938,0.403421
49.54,16.458586,-0.326435,1.119963,0.404004
49.59,16.545668,-0.325097,1.120597,0.404967
49.64,16.628183,-0.323246,1.121382,0.404942
49.69,16.712291,-0.321583,1.121889,0.40518
49.74,16.796566,-0.319849,1.122199,0.405332
49.79,16.879159,-0.317765,1.122138,0.404612
49.84,16.964396,-0.315929,1.1223,0.404009
49.891,17.045419,-0.314028,1.122275,0.403188
49.941,17.127345,-0.312375,1.12264,0.40337
49.991,17.208881,-0.31128,1.12372,0.403401
50.041,17.29258,-0.310631,1.124526,0.403588
50.092,17.377013,-0.310002,1.125378,0.403152
50.142,17.458644,-0.308897,1.126478,0.402402
50.192,17.538684,-0.307665,1.127502,0.402118
50.242,17.620601,-0.305849,1.127994,0.40156
50.293,17.705614,-0.304277,1.129024,0.401469
50.343,17.790178,-0.302513,1.129754,0.40082
50.393,17.875192,-0.299547,1.129668,0.399937
50.443,17.960946,-0.2969,1.129891,0.400333
50.493,18.047091,-0.294203,1.130519,0.40155
50.543,18.138188,-0.292154,1.130945,0.402016
50.593,18.23058,-0.290816,1.131544,0.402686
50.643,18.317448,-0.289954,1.132492,0.403715
50.693,18.403988,-0.288361,1.132755,0.404536
50.743,18.489836,-0.287023,1.133283,0.405332
50.793,18.578067,-0.285978,1.133911,0.406098
50.844,18.664986,-0.284123,1.134611,0.406002
50.894,18.747816,-0.281699,1.1349,0.405799
50.944,18.823504,-0.279047,1.135139,0.407072
50.994,18.899692,-0.275478,1.13492,0.407984
51.044,18.980418,-0.271741,1.134885,0.408618
51.094,19.059845,-0.26845,1.135225,0.40912
51.144,19.141601,-0.264885,1.13559,0.40946
51.194,19.21886,-0.26128,1.135929,0.409561
51.244,19.29703,-0.258025,1.136249,0.409764
51.294,19.377824,-0.255333,1.136791,0.409186
51.344,19.463201,-0.252468,1.136731,0.408243
51.394,19.549099,-0.249689,1.137304,0.407295
51.445,19.629862,-0.246784,1.137664,0.40621
51.495,19.711604,-0.24361,1.138089,0.405125
51.545,19.788941,-0.240816,1.138404,0.404384
51.595,19.866435,-0.238626,1.139464,0.404045
51.645,19.940277,-0.237049,1.140473,0.403325
51.695,20.008115,-0.235294,1.141355,0.403487
51.745,20.070956,-0.234078,1.14356,0.402949
51.795,20.124734,-0.233642,1.145274,0.402463
51.846,20.173775,-0.233915,1.146877,0.402128
51.896,20.214734,-0.23463,1.147865,0.401601
51.946,20.248484,-0.23532,1.148661,0.401372
51.996,20.274275,-0.235954,1.148388,0.401235
52.047,20.292998,-0.235675,1.147353,0.401423
52.097,20.307141,-0.235401,1.146415,0.400825
52.147,20.313573,-0.234722,1.145112,0.400962
52.197,20.319779,-0.233946,1.14425,0.400977
52.247,20.325796,-0.232861,1.143216,0.401327
52.297,20.327665,-0.23207,1.142825,0.402148
52.347,20.326357,-0.231963,1.14284,0.402463
52.397,20.325011,-0.231476,1.143307,0.402736
52.447,20.322993,-0.231613,1.144377,0.403137
52.497,20.320489,-0.232364,1.14534,0.403685
52.547,20.319181,-0.233454,1.1453,0.404217
52.597,20.315555,-0.234762,1.145122,0.405571
52.647,20.307777,-0.236192,1.14535,0.406047
52.698,20.302503,-0.237191,1.145208,0.406534
52.748,20.301493,-0.236831,1.14462,0.407102
52.798,20.299584,-0.236968,1.14425,0.407112
52.848,20.300071,-0.237201,1.144215,0.407137
52.898,20.299285,-0.236887,1.143931,0.407629
52.948,20.300146,-0.236126,1.144793,0.407411
52.998,20.30254,-0.235249,1.145629,0.40625
53.048,20.309011,-0.234681,1.146466,0.406007
53.099,20.313723,-0.234346,1.147373,0.405241
53.149,20.315443,-0.235239,1.148646,0.404668
53.199,20.316377,-0.23566,1.149498,0.404785
53.25,20.313349,-0.236202,1.149772,0.404126
53.3,20.311442,-0.237115,1.150152,0.403989
53.35,20.308375,-0.238722,1.150071,0.403842
53.4,20.301717,-0.239498,1.14964,0.403395
53.451,20.290902,-0.239239,1.148484,0.402245
53.501,20.281991,-0.23894,1.147216,0.401261
53.551,20.273976,-0.238078,1.145731,0.400003
53.601,20.268393,-0.237804,1.144068,0.398639
53.651,20.261309,-0.2371,1.142404,0.398188
53.702,20.25621,-0.235994,1.141172,0.396525
53.752,20.249047,-0.234767,1.13991,0.395648
53.802,20.240418,-0.234179,1.138414,0.395744
53.852,20.231935,-0.234062,1.137638,0.396403
53.903,20.214358,-0.233591,1.137511,0.397063
53.953,20.196541,-0.233464,1.137106,0.398442
54.003,20.172608,-0.23316,1.137217,0.399927
54.053,20.150495,-0.23354,1.137755,0.400723
54.103,20.1196,-0.234585,1.138242,0.402295
54.153,20.084537,-0.235401,1.138505,0.403061
54.203,20.049488,-0.236248,1.139017,0.403852
54.254,20.010924,-0.237774,1.139428,0.40443
54.304,19.976772,-0.239909,1.138997,0.405525
54.355,19.93582,-0.241769,1.138652,0.405748
54.406,19.892569,-0.244005,1.138039,0.405266
54.456,19.845052,-0.246039,1.1374,0.405606
54.506,19.796693,-0.247474,1.136051,0.405373
54.556,19.746753,-0.249091,1.134621,0.406514
54.606,19.694103,-0.250947,1.133962,0.406889
54.657,19.636477,-0.252098,1.133409,0.407482
54.707,19.574531,-0.253147,1.133491,0.407325
54.757,19.512037,-0.254643,1.134119,0.407239
54.807,19.448601,-0.255505,1.134743,0.40729
54.857,19.383272,-0.256169,1.134905,0.406641
54.908,19.318391,-0.257239,1.135691,0.406407
54.958,19.250371,-0.258745,1.137004,0.405317
55.008,19.178467,-0.260104,1.136969,0.404977
55.058,19.107088,-0.261803,1.136457,0.404242
55.108,19.034563,-0.264069,1.135737,0.403903
55.158,18.958756,-0.266133,1.134469,0.403755
55.209,18.880513,-0.26848,1.133308,0.40409
55.259,18.798834,-0.271016,1.132451,0.404835
55.31,18.715459,-0.273759,1.13129,0.405175
55.361,18.635501,-0.276192,1.129875,0.405216
55.411,18.555322,-0.27893,1.130038,0.4041
55.461,18.476933,-0.282323,1.130692,0.40335
55.511,18.396599,-0.284812,1.131341,0.402772
55.561,18.318484,-0.28716,1.132117,0.402219
55.611,18.24399,-0.289416,1.132111,0.401981
55.662,18.172493,-0.29148,1.13237,0.401377
55.713,18.098112,-0.293371,1.132821,0.40122
55.763,18.022032,-0.294933,1.13309,0.401058
55.813,17.953247,-0.296418,1.132512,0.402026
55.863,17.882074,-0.297042,1.131468,0.402549
55.914,17.814369,-0.297945,1.130073,0.40299
55.964,17.747647,-0.299045,1.128674,0.40338
56.014,17.678911,-0.300698,1.128527,0.403213
56.064,17.609174,-0.302604,1.127862,0.403527
56.116,17.54362,-0.30409,1.126803,0.403614
56.166,17.477646,-0.305591,1.125566,0.404318
56.217,17.397849,-0.306792,1.123882,0.404765
56.267,17.318387,-0.308045,1.122184,0.405774
56.317,17.23781,-0.309784,1.120754,0.406265
56.367,17.156943,-0.311437,1.119694,0.40696
56.417,17.073424,-0.312507,1.118051,0.407503
56.467,16.990925,-0.313242,1.116363,0.407624
56.517,16.907979,-0.314439,1.115268,0.407528
56.567,16.823991,-0.315914,1.114902,0.406859
56.617,16.748882,-0.317592,1.115065,0.405525
56.667,16.673206,-0.319727,1.11547,0.404379
56.717,16.595034,-0.321547,1.116109,0.403979
56.767,16.511341,-0.323459,1.116515,0.403046
56.818,16.431012,-0.325594,1.117118,0.402589
56.868,16.35015,-0.327895,1.118071,0.402026
56.918,16.268138,-0.330375,1.118827,0.401869
56.968,16.188104,-0.332854,1.118893,0.401986
57.019,16.111303,-0.335227,1.119116,0.403025
57.069,16.038113,-0.337159,1.119405,0.403233
57.119,15.965015,-0.338538,1.119004,0.402904
57.169,15.898175,-0.33974,1.118026,0.403086
57.22,15.829374,-0.340759,1.11689,0.403162
57.27,15.75685,-0.341905,1.115592,0.403512
57.321,15.683749,-0.342483,1.113888,0.403679
57.371,15.608407,-0.343117,1.112839,0.403639
57.421,15.527614,-0.34368,1.111647,0.403259
57.472,15.44694,-0.344212,1.110425,0.403243
57.522,15.370882,-0.345115,1.109649,0.403588
57.573,15.297377,-0.346088,1.109573,0.403086
57.623,15.230499,-0.34732,1.109726,0.402392
57.674,15.172891,-0.348451,1.109852,0.401636
57.724,15.122047,-0.349708,1.110263,0.400445
57.774,15.082265,-0.350809,1.110278,0.399324
57.824,15.0554,-0.351797,1.110096,0.398001
57.874,15.033842,-0.352746,1.10968,0.396733
57.924,15.023583,-0.353704,1.109462,0.39508
57.974,15.021611,-0.354424,1.109021,0.394624
58.024,15.026768,-0.354546,1.107621,0.394426
58.074,15.042984,-0.354201,1.106379,0.394162
58.125,15.066091,-0.353739,1.10498,0.395151
58.175,15.095655,-0.353141,1.103666,0.39654
58.226,15.124859,-0.352619,1.102551,0.397727
58.276,15.163177,-0.352051,1.101684,0.398705
58.326,15.201648,-0.351265,1.100802,0.399836
58.376,15.240968,-0.350124,1.099828,0.400556
58.426,15.282325,-0.349323,1.100193,0.400769
58.476,15.320348,-0.348877,1.100594,0.401393
58.526,15.360799,-0.348415,1.101613,0.400941
58.576,15.401883,-0.347477,1.102449,0.399973
58.626,15.450824,-0.346139,1.103352,0.39977
58.676,15.500737,-0.344866,1.104544,0.399745
58.726,15.553664,-0.34336,1.105857,0.399978
58.776,15.611278,-0.342336,1.107418,0.400226
58.826,15.673963,-0.340962,1.108646,0.400865
58.876,15.741369,-0.339654,1.110146,0.401129
58.926,15.816461,-0.338158,1.111054,0.401393
58.977,15.891198,-0.337053,1.112347,0.401885
59.028,15.965157,-0.336044,1.113726,0.401793
59.078,16.039675,-0.334888,1.115004,0.401717
59.128,16.113707,-0.333879,1.115354,0.401464
59.178,16.189043,-0.332773,1.11582,0.40047
59.228,16.262254,-0.331861,1.116038,0.399623
59.278,16.336254,-0.329893,1.115633,0.398908
59.328,16.403948,-0.328068,1.115663,0.398645
59.379,16.475698,-0.32608,1.115825,0.398219
59.429,16.550946,-0.324929,1.116079,0.398016
59.479,16.626219,-0.323489,1.115739,0.397909
59.529,16.703881,-0.321938,1.116282,0.397483
59.579,16.783039,-0.320163,1.116728,0.39834
59.629,16.862817,-0.318181,1.117133,0.398969
59.679,16.942578,-0.316903,1.117975,0.399501
59.729,17.024731,-0.315448,1.11832,0.400318
59.78,17.107733,-0.313977,1.118213,0.401281
59.83,17.18534,-0.310965,1.117666,0.402518
59.88,17.261631,-0.307984,1.117879,0.403842
59.93,17.339908,-0.305434,1.118619,0.405343
59.981,17.415216,-0.302919,1.11869,0.406199
60.031,17.492632,-0.300348,1.118888,0.406935
60.081,17.569231,-0.298122,1.119025,0.407868
60.131,17.644852,-0.296043,1.119643,0.408435
60.181,17.716078,-0.293797,1.120688,0.408912
60.231,17.791886,-0.292367,1.12191,0.40838
60.281,17.872133,-0.291429,1.122822,0.407335
60.332,17.949482,-0.289857,1.122817,0.4066
60.382,18.03147,-0.287966,1.124004,0.406037
60.432,18.110026,-0.286166,1.125535,0.405738
60.483,18.192753,-0.28394,1.127284,0.405216
60.533,18.277099,-0.281501,1.129176,0.404541
60.583,18.364864,-0.279407,1.130317,0.404531
60.633,18.451552,-0.277267,1.131508,0.405555
60.683,18.534844,-0.274687,1.132725,0.407305
60.733,18.6207,-0.272359,1.133769,0.409297
60.783,18.702752,-0.27062,1.134018,0.410869
60.833,18.788285,-0.269124,1.133846,0.412243
60.883,18.869447,-0.267558,1.133115,0.413876
60.933,18.951824,-0.26592,1.132081,0.415037
60.983,19.035042,-0.264323,1.131731,0.415154
61.034,19.117142,-0.262847,1.131199,0.415656
61.084,19.203045,-0.261894,1.130514,0.415022
61.134,19.287227,-0.261377,1.13058,0.413927
61.184,19.369121,-0.260494,1.131108,0.412877
61.234,19.448327,-0.259212,1.131645,0.411518
61.284,19.526862,-0.258142,1.132603,0.40984
61.334,19.604812,-0.257457,1.133404,0.408552
61.384,19.677126,-0.25622,1.13414,0.407589
61.434,19.749061,-0.254648,1.134976,0.405343
61.484,19.814602,-0.252412,1.135904,0.403852
61.534,19.876526,-0.249076,1.135798,0.401839
61.584,19.943629,-0.246186,1.13564,0.400115
61.635,20.012442,-0.24327,1.135458,0.399283
61.685,20.084726,-0.240365,1.134839,0.398639
61.735,20.155469,-0.236785,1.134576,0.398807
61.785,20.234038,-0.233459,1.134206,0.398883
61.835,20.316415,-0.23029,1.134287,0.399405
61.885,20.401959,-0.22738,1.134484,0.400328
61.936,20.496116,-0.225301,1.136102,0.402103
61.986,20.586928,-0.22237,1.137496,0.403872
62.036,20.679875,-0.220296,1.138891,0.405033
62.087,20.7712,-0.21802,1.140873,0.405824
62.138,20.861251,-0.216899,1.14242,0.405915
62.188,20.946456,-0.215966,1.144012,0.40626
62.238,21.027848,-0.214825,1.145345,0.406742
62.288,21.112345,-0.213771,1.146522,0.406681
62.338,21.192455,-0.212244,1.147191,0.406108
62.388,21.274584,-0.211012,1.147485,0.405576
62.438,21.354298,-0.208305,1.147931,0.40519
62.488,21.435807,-0.205693,1.148347,0.404805
62.538,21.520855,-0.202154,1.149305,0.40447
62.589,21.609223,-0.198453,1.15037,0.404186
62.639,21.695622,-0.194939,1.151171,0.403816
62.689,21.783316,-0.191131,1.152069,0.40302
62.739,21.869513,-0.187972,1.152976,0.402802
62.789,21.95205,-0.184991,1.154543,0.40229
62.839,22.037104,-0.182988,1.156176,0.40086
62.89,22.118397,-0.181031,1.157499,0.399932
62.94,22.198196,-0.17952,1.15862,0.398619
62.99,22.27348,-0.177725,1.159603,0.396895
63.04,22.351943,-0.175819,1.160861,0.395486
63.09,22.424544,-0.173785,1.162052,0.394649
63.14,22.497248,-0.171139,1.162387,0.393579
63.19,22.575842,-0.168583,1.162554,0.39291
63.24,22.64977,-0.165414,1.162828,0.393493
63.29,22.727336,-0.161956,1.16298,0.394208
63.34,22.803005,-0.157854,1.162154,0.395815
63.39,22.882274,-0.154518,1.161601,0.397752
63.441,22.96084,-0.151617,1.161216,0.399872
63.491,23.039567,-0.149295,1.161074,0.402042
63.541,23.118617,-0.147242,1.161535,0.403466
63.591,23.192846,-0.145097,1.161728,0.404846
63.641,23.268731,-0.144103,1.161728,0.405753
63.691,23.341604,-0.143596,1.162473,0.405824
63.742,23.414251,-0.143799,1.164755,0.405353
63.793,23.483212,-0.143408,1.166311,0.404846
63.843,23.555905,-0.142481,1.167807,0.403314
63.893,23.629467,-0.141309,1.169399,0.401844
63.943,23.707191,-0.139545,1.171225,0.400764
63.993,23.787215,-0.137506,1.172999,0.399065
64.043,23.866908,-0.134834,1.174343,0.398183
64.093,23.948745,-0.131539,1.174865,0.398188
64.143,24.034318,-0.127817,1.174693,0.398127
64.193,24.12324,-0.124699,1.175266,0.398503
64.243,24.207474,-0.121905,1.175276,0.399425
64.293,24.294605,-0.119415,1.174713,0.400125
64.344,24.374914,-0.118279,1.173912,0.401666
64.395,24.453001,-0.117808,1.173785,0.403071
64.445,24.531831,-0.117443,1.174678,0.403588
64.495,24.609174,-0.1176,1.176037,0.40411
64.545,24.685106,-0.117793,1.177897,0.404252
64.595,24.759485,-0.117088,1.179079,0.403887
64.645,24.833428,-0.116099,1.181087,0.403593
64.695,24.905077,-0.114649,1.184332,0.403517
64.745,24.978406,-0.112134,1.187851,0.402539
64.795,25.052218,-0.109067,1.190066,0.402701
64.845,25.121279,-0.106217,1.191724,0.402995
64.895,25.18629,-0.104047,1.193494,0.402179
64.945,25.244786,-0.101958,1.193971,0.402483
64.995,25.29339,-0.100792,1.195,0.402665
65.045,25.335096,-0.09999,1.195289,0.402615
65.095,25.365267,-0.099412,1.193869,0.402523
65.146,25.384424,-0.099205,1.19177,0.402534
65.196,25.391963,-0.099402,1.190781,0.402072
65.246,25.394954,-0.098819,1.189204,0.401748
65.296,25.392053,-0.096446,1.187227,0.401803
65.346,25.383257,-0.09423,1.186395,0.401357
65.396,25.374787,-0.091584,1.185493,0.401063
65.446,25.363051,-0.089155,1.184631,0.401159
65.496,25.349991,-0.087228,1.184099,0.400805
65.546,25.339142,-0.085722,1.18417,0.400703
65.596,25.330298,-0.084419,1.184459,0.400308
65.646,25.318751,-0.083496,1.184808,0.399775
65.696,25.307769,-0.084196,1.18453,0.399826
65.746,25.296512,-0.085301,1.184038,0.399228
65.796,25.28456,-0.08626,1.183531,0.39906
65.846,25.276027,-0.08666,1.183166,0.398817
65.896,25.272721,-0.085991,1.183155,0.398792
65.946,25.268874,-0.085007,1.182653,0.39907
65.996,25.266259,-0.084019,1.181715,0.399836
66.046,25.266349,-0.083415,1.181573,0.40014
66.096,25.265237,-0.082198,1.182466,0.400749
66.146,25.268994,-0.080672,1.183267,0.40194
66.196,25.276838,-0.079729,1.183804,0.402498
66.247,25.281766,-0.079628,1.184382,0.403142
66.297,25.28504,-0.080667,1.1853,0.403755
66.348,25.290597,-0.082001,1.186639,0.403943
66.399,25.296452,-0.082883,1.187683,0.403948
66.449,25.299725,-0.083557,1.188099,0.404541
66.499,25.304768,-0.08451,1.188023,0.404435
66.549,25.307349,-0.08593,1.188008,0.404207
66.6,25.303237,-0.086828,1.187866,0.404491
66.65,25.301226,-0.086478,1.18745,0.40444
66.7,25.299095,-0.0859,1.186679,0.405175
66.75,25.294771,-0.085104,1.185995,0.405586
66.8,25.289035,-0.084546,1.185757,0.40587
66.85,25.286993,-0.08413,1.185427,0.406113
66.9,25.283268,-0.084247,1.185128,0.406402
66.95,25.276568,-0.084014,1.184595,0.406793
67,25.272721,-0.084338,1.183997,0.406727
67.05,25.267792,-0.08626,1.183744,0.406544
67.1,25.259284,-0.088511,1.18352,0.405429
67.15,25.249389,-0.090636,1.182679,0.405008
67.2,25.234314,-0.092796,1.181183,0.404161
67.25,25.210675,-0.094981,1.181163,0.403081
67.3,25.182037,-0.096107,1.181335,0.402224
67.35,25.147871,-0.097227,1.18135,0.401748
67.4,25.105068,-0.098804,1.182212,0.401261
67.45,25.050551,-0.100295,1.182836,0.401601
67.5,24.990384,-0.100974,1.18316,0.402321
67.55,24.922455,-0.102384,1.184099,0.402513
67.6,24.852231,-0.104098,1.18568,0.403527
67.651,24.777823,-0.106252,1.185422,0.404835
67.701,24.699686,-0.109244,1.184727,0.406184
67.751,24.620591,-0.112423,1.18421,0.406757
67.801,24.540251,-0.115039,1.18273,0.407994
67.852,24.465888,-0.116586,1.181923,0.408882
67.903,24.391454,-0.11905,1.181619,0.409313
67.953,24.318229,-0.120475,1.181082,0.410012
68.004,24.243624,-0.121758,1.179895,0.409875
68.054,24.173187,-0.122559,1.179555,0.410068
68.104,24.105003,-0.123451,1.179505,0.409744
68.154,24.03672,-0.124242,1.179332,0.409034
68.204,23.969953,-0.12515,1.17956,0.407827
68.254,23.901348,-0.127021,1.178739,0.405718
68.304,23.833183,-0.12805,1.177274,0.404237
68.354,23.764854,-0.13023,1.175717,0.402412
68.404,23.696167,-0.132984,1.17482,0.40156
68.454,23.626446,-0.136198,1.173177,0.400044
68.504,23.554035,-0.139073,1.171483,0.398984
68.554,23.482856,-0.141801,1.170368,0.399334
68.604,23.411623,-0.1446,1.168963,0.399704
68.655,23.338122,-0.147105,1.16768,0.400475
68.705,23.263018,-0.150395,1.166824,0.401154
68.755,23.185411,-0.152997,1.165348,0.402523
68.807,23.10958,-0.154857,1.163497,0.403025
68.857,23.030763,-0.156657,1.162509,0.403852
68.907,22.955117,-0.158914,1.1619,0.404972
68.958,22.876598,-0.161779,1.160962,0.405327
69.008,22.798874,-0.164866,1.160653,0.405155
69.058,22.720484,-0.167904,1.160835,0.405312
69.108,22.642526,-0.170667,1.16117,0.405135
69.158,22.567901,-0.173735,1.162073,0.404506
69.208,22.48911,-0.177106,1.162666,0.404242
69.258,22.410043,-0.180017,1.162833,0.403537
69.308,22.326375,-0.182537,1.162585,0.401666
69.358,22.244169,-0.184788,1.161779,0.399902
69.408,22.160766,-0.186228,1.160328,0.399207
69.458,22.079353,-0.18746,1.158417,0.398934
69.508,21.996983,-0.188733,1.155958,0.398756
69.558,21.913784,-0.189737,1.153859,0.398685
69.608,21.832528,-0.190979,1.152489,0.398411
69.658,21.755823,-0.192485,1.151166,0.398492
69.708,21.679407,-0.193879,1.149574,0.399775
69.758,21.60504,-0.195046,1.148509,0.401048
69.808,21.529535,-0.196719,1.147901,0.401525
69.858,21.452171,-0.198914,1.147764,0.400581
69.908,21.380603,-0.200978,1.147739,0.400257
69.959,21.310861,-0.20364,1.147652,0.400115
70.01,21.24679,-0.205557,1.147074,0.400186
70.06,21.183529,-0.20725,1.146608,0.399927
70.11,21.131439,-0.208908,1.146522,0.398918
70.16,21.085237,-0.210667,1.146385,0.397909
70.21,21.050664,-0.212686,1.145751,0.397651
70.261,21.031352,-0.213897,1.144889,0.398979
70.312,21.019069,-0.214759,1.144914,0.398898
70.362,21.017913,-0.214567,1.144909,0.398051
70.412,21.026692,-0.214633,1.145229,0.397367
70.462,21.04637,-0.214582,1.145183,0.397367
70.512,21.072157,-0.213984,1.145538,0.398066
70.562,21.10504,-0.212949,1.146009,0.39869
70.612,21.141752,-0.210891,1.146917,0.398198
70.662,21.179584,-0.209314,1.148398,0.396916
70.712,21.222503,-0.207311,1.149234,0.396819
70.762,21.271049,-0.205577,1.149767,0.397443
70.812,21.320161,-0.203625,1.150213,0.397864
70.862,21.374918,-0.201419,1.151374,0.398026
70.912,21.430031,-0.199913,1.152221,0.397346
70.962,21.48822,-0.198108,1.152915,0.396576
71.012,21.555097,-0.196232,1.153894,0.396429
71.062,21.625386,-0.193773,1.154391,0.396662
71.113,21.698982,-0.192039,1.154878,0.396733
71.163,21.769888,-0.190132,1.155547,0.396637
71.213,21.842545,-0.187775,1.155775,0.3969
71.263,21.913298,-0.185746,1.156034,0.396647
71.313,21.988384,-0.183531,1.15615,0.397078
71.363,22.065899,-0.181812,1.156282,0.397701
71.413,22.135972,-0.180727,1.156008,0.398599
71.463,22.206611,-0.179444,1.155836,0.399501
71.513,22.277026,-0.17776,1.155912,0.399937
71.563,22.352045,-0.176351,1.156247,0.400297
71.613,22.432536,-0.175144,1.15755,0.400313
71.663,22.514595,-0.173451,1.158097,0.400282
71.713,22.597027,-0.171002,1.159015,0.400064
71.764,22.67762,-0.168563,1.16042,0.400034
71.814,22.762699,-0.165698,1.161976,0.399866
71.865,22.850187,-0.163127,1.163523,0.399765
71.915,22.93721,-0.160775,1.165348,0.399912
71.965,23.021758,-0.157606,1.167346,0.400008
72.015,23.102875,-0.154599,1.168553,0.400515
72.065,23.182692,-0.151962,1.170332,0.401976
72.115,23.264226,-0.149828,1.171803,0.403411
72.165,23.346029,-0.147008,1.172939,0.404988
72.215,23.4292,-0.144453,1.174328,0.406225
72.265,23.510978,-0.141928,1.175545,0.406646
72.315,23.590735,-0.138663,1.175874,0.407584
72.365,23.673623,-0.136178,1.175443,0.408659
72.415,23.757981,-0.133714,1.175834,0.408577
72.465,23.843984,-0.131133,1.176173,0.407954
72.515,23.92609,-0.128577,1.176336,0.407721
72.565,24.010921,-0.126727,1.176341,0.407016
72.615,24.089779,-0.124983,1.175986,0.40657
72.665,24.166085,-0.122817,1.175971,0.406762
72.715,24.246819,-0.121585,1.176539,0.406042
72.765,24.322726,-0.119882,1.177522,0.404917
72.815,24.396467,-0.118006,1.177593,0.404425
72.865,24.468154,-0.115866,1.178268,0.403826
72.915,24.538147,-0.113883,1.179956,0.402817
72.965,24.605069,-0.111049,1.181802,0.401398
73.016,24.676673,-0.107206,1.183627,0.400201
73.066,24.751968,-0.103727,1.185792,0.398396
73.116,24.821619,-0.099372,1.187607,0.3969
73.167,24.893241,-0.094986,1.189666,0.396145
73.217,24.96694,-0.090818,1.192617,0.396003
73.267,25.040179,-0.087238,1.194696,0.396059
73.317,25.120341,-0.082629,1.19539,0.395501
73.367,25.200429,-0.078801,1.196313,0.395993
73.417,25.279783,-0.075571,1.197297,0.395988
73.467,25.35763,-0.072301,1.197003,0.396834
73.517,25.441569,-0.069548,1.197292,0.398208
73.567,25.527701,-0.06788,1.197018,0.399349
73.617,25.610519,-0.066232,1.196126,0.399856
73.667,25.695051,-0.064153,1.195086,0.400029
73.717,25.774974,-0.063935,1.195269,0.401403
73.767,25.855854,-0.063539,1.194904,0.402082
73.817,25.935282,-0.06358,1.194037,0.40335
73.867,26.014671,-0.064117,1.194868,0.404328
73.917,26.091665,-0.06504,1.195477,0.404612
73.968,26.165907,-0.064122,1.196333,0.404465
74.018,26.241878,-0.062571,1.19752,0.404526
74.068,26.317832,-0.060979,1.199827,0.405256
74.118,26.394373,-0.057764,1.201029,0.404846
74.168,26.468971,-0.05493,1.202382,0.404638
74.218,26.544962,-0.052111,1.204979,0.403958
74.268,26.619195,-0.048708,1.205739,0.403406
74.318,26.689807,-0.044834,1.205759,0.40338
74.368,26.759495,-0.042269,1.205861,0.403755
74.418,26.830983,-0.040499,1.205237,0.403735
74.468,26.902451,-0.038907,1.203031,0.403005
74.518,26.973589,-0.037858,1.201891,0.403188
74.568,27.047516,-0.035611,1.200922,0.403502
74.618,27.122418,-0.032376,1.198757,0.403745
74.668,27.198231,-0.028807,1.197829,0.403624
74.718,27.278566,-0.025521,1.197997,0.403512
74.768,27.362941,-0.021921,1.19824,0.403198
74.819,27.445148,-0.017566,1.199148,0.403335
74.869,27.527081,-0.012815,1.201181,0.404126
74.919,27.609101,-0.008008,1.202453,0.404207
74.97,27.689863,-0.004297,1.204061,0.404024
75.02,27.768147,-0.001619,1.20651,0.40447
75.07,27.846212,0.000561,1.209268,0.404886
75.12,27.924248,0.003522,1.211575,0.405043
75.17,27.998758,0.006184,1.213806,0.405043
75.221,28.074261,0.007553,1.216245,0.404922
75.271,28.149399,0.00879,1.217827,0.404318
75.322,28.225305,0.009845,1.219196,0.404222
75.372,28.302699,0.011523,1.220012,0.404181
75.423,28.382184,0.013485,1.220524,0.403355
75.473,28.466703,0.014636,1.220154,0.402665
75.524,28.551371,0.015869,1.219815,0.40193
75.574,28.640324,0.017349,1.219662,0.401367
75.624,28.728896,0.020442,1.218902,0.40049
75.675,28.817907,0.023358,1.21879,0.399968
75.725,28.90759,0.026278,1.219237,0.399415
75.775,28.992961,0.028479,1.220251,0.399446
75.825,29.076489,0.031207,1.22095,0.400003
75.875,29.152431,0.035156,1.22163,0.400637
75.925,29.226616,0.037732,1.222517,0.401159
75.975,29.298203,0.040779,1.223029,0.402092
76.025,29.368063,0.043365,1.223435,0.403431
76.075,29.439203,0.046032,1.224124,0.405074
76.125,29.508343,0.049516,1.226213,0.406549
76.175,29.583331,0.053755,1.228886,0.40696
76.225,29.66156,0.058024,1.231806,0.407198
76.275,29.744768,0.063216,1.235077,0.407497
76.326,29.828023,0.07,1.238651,0.408116
76.376,29.908355,0.0768,1.24289,0.408086
76.427,29.991359,0.08261,1.247819,0.407903
76.477,30.073225,0.08764,1.252367,0.406468
76.527,30.153987,0.091261,1.253837,0.40516
76.577,30.22682,0.094774,1.253061,0.404202
76.627,30.288948,0.096975,1.252544,0.403041
76.677,30.340561,0.097102,1.251839,0.401773
76.727,30.381613,0.095981,1.250105,0.400571
76.777,30.415794,0.094044,1.247499,0.400206
76.828,30.437312,0.092386,1.244482,0.399831
76.878,30.443874,0.091392,1.240918,0.400693
76.928,30.439608,0.09047,1.238844,0.401398
76.978,30.428901,0.089111,1.237774,0.40195
77.028,30.415644,0.088391,1.236577,0.402797
77.078,30.400507,0.087737,1.235675,0.404095
77.128,30.384863,0.086935,1.235244,0.40481
77.178,30.367935,0.086038,1.234275,0.404871
77.228,30.350798,0.085445,1.234204,0.405201
77.278,30.339284,0.085065,1.23533,0.404612
77.328,30.328242,0.085658,1.23603,0.404552
77.378,30.318348,0.085957,1.237373,0.405114
77.428,30.307047,0.086489,1.238768,0.405282
77.478,30.299879,0.087412,1.239635,0.404658
77.528,30.296394,0.087914,1.240005,0.403771
77.578,30.295492,0.088786,1.241927,0.402873
77.628,30.297723,0.089562,1.242566,0.401895
77.678,30.297147,0.089613,1.241851,0.400936
77.729,30.298575,0.089253,1.242272,0.399694
77.779,30.299528,0.088599,1.242084,0.398376
77.829,30.300882,0.087392,1.241734,0.397864
77.879,30.292082,0.08687,1.241876,0.397712
77.929,30.27297,0.087529,1.242672,0.398426
77.98,30.2435,0.086865,1.242581,0.399684
78.03,30.207038,0.08507,1.242834,0.400531
78.08,30.163129,0.083579,1.243727,0.401626
78.13,30.109396,0.081885,1.243919,0.402584
78.18,30.045405,0.080658,1.244614,0.402995
78.23,29.974716,0.079173,1.244589,0.401885
78.28,29.901904,0.077104,1.244513,0.400926
78.33,29.830035,0.074148,1.243823,0.400313
78.38,29.759549,0.071942,1.242601,0.398558
78.43,29.685493,0.071324,1.240558,0.397083
78.48,29.615252,0.069407,1.238545,0.396125
78.53,29.54847,0.066142,1.236263,0.394908
78.581,29.485478,0.063018,1.232932,0.394183
78.632,29.423899,0.060453,1.230148,0.394304
78.682,29.361441,0.057213,1.226832,0.393711
78.733,29.298514,0.054683,1.224124,0.39258
78.783,29.230202,0.05268,1.223131,0.392844
78.834,29.161183,0.049982,1.223475,0.393092
78.884,29.088346,0.048659,1.223678,0.39328
78.935,29.012864,0.049293,1.223688,0.393569
78.985,28.933931,0.049866,1.224322,0.393513
79.035,28.851518,0.049283,1.225392,0.394847
79.086,28.769687,0.048461,1.226832,0.397265
79.137,28.685425,0.046676,1.227846,0.399476
79.187,28.60827,0.044116,1.22706,0.40087
79.237,28.533542,0.041373,1.225306,0.402579
79.287,28.459498,0.037991,1.222958,0.404273
79.338,28.385154,0.033012,1.221336,0.405758
79.388,28.312278,0.026598,1.219931,0.407705
79.438,28.240102,0.021025,1.217715,0.407792
79.488,28.168226,0.016168,1.215317,0.406914
79.538,28.097031,0.01126,1.212878,0.40589
79.588,28.021726,0.00732,1.21119,0.404942
79.638,27.943037,0.002822,1.210373,0.403208
79.688,27.865108,-0.001346,1.210607,0.400607
79.739,27.786987,-0.005138,1.209719,0.399116
79.789,27.709112,-0.006964,1.208127,0.397063
79.839,27.633602,-0.008556,1.206804,0.395729
79.889,27.557939,-0.010503,1.206013,0.395714
79.939,27.481156,-0.011233,1.205344,0.395668
79.989,27.403964,-0.012303,1.204304,0.395734
80.039,27.331057,-0.0128,1.202905,0.396697
80.089,27.253635,-0.013804,1.201221,0.398046
80.139,27.176971,-0.014037,1.200451,0.398345
80.189,27.101603,-0.015786,1.200679,0.399141
80.239,27.025238,-0.017819,1.201521,0.39938
80.289,26.948882,-0.019989,1.201267,0.398447
80.339,26.87491,-0.023174,1.201323,0.398295
80.389,26.802887,-0.02761,1.202266,0.398036
80.439,26.726436,-0.031854,1.202443,0.398051
80.489,26.656263,-0.034694,1.202261,0.398548
80.539,26.587619,-0.038162,1.202661,0.399319
80.589,26.517365,-0.040464,1.203031,0.399567
80.639,26.445115,-0.043268,1.202535,0.400896
80.689,26.373531,-0.045326,1.202666,0.402168
80.739,26.299326,-0.047086,1.202469,0.403254
80.789,26.221841,-0.047684,1.201602,0.404161
80.839,26.14985,-0.048293,1.202139,0.403776
80.889,26.07361,-0.05025,1.202905,0.403304
80.94,25.995862,-0.051598,1.202241,0.402731
80.99,25.921953,-0.053738,1.200106,0.402412
81.041,25.854297,-0.055731,1.198453,0.401438
81.091,25.788614,-0.058484,1.197069,0.401195
81.141,25.732092,-0.061912,1.195791,0.399917
81.191,25.687867,-0.065197,1.194564,0.399045
81.242,25.648512,-0.068741,1.192318,0.399075
81.293,25.62481,-0.071733,1.189417,0.3987
81.343,25.616984,-0.075181,1.18742,0.398589
81.393,25.619445,-0.077523,1.18705,0.399126
81.443,25.63293,-0.078147,1.186948,0.399963
81.493,25.664261,-0.077777,1.18603,0.400424
81.543,25.70507,-0.076099,1.18493,0.402437
81.593,25.753188,-0.07473,1.183911,0.404521
81.643,25.810606,-0.072235,1.183297,0.405941
81.693,25.871859,-0.069624,1.184322,0.407857
81.744,25.93411,-0.066374,1.185427,0.409313
81.794,26.000069,-0.063331,1.185934,0.409683
81.844,26.067084,-0.06108,1.186177,0.409921
81.895,26.130353,-0.059138,1.187972,0.409556
81.945,26.197006,-0.057404,1.190376,0.408593
81.995,26.265052,-0.054925,1.19285,0.407426
82.045,26.332345,-0.053201,1.195228,0.406625
82.095,26.400214,-0.051284,1.196653,0.404805
82.145,26.470004,-0.050067,1.197819,0.40336
82.195,26.542473,-0.049002,1.199051,0.402483
82.245,26.619737,-0.047938,1.200456,0.401251
82.295,26.697774,-0.04596,1.200745,0.401413
82.345,26.770818,-0.04308,1.200405,0.401296
82.395,26.84369,-0.040246,1.20007,0.401682
82.445,26.919244,-0.037629,1.200588,0.402006
82.495,26.993968,-0.034389,1.200973,0.403512
82.545,27.066268,-0.029608,1.201475,0.404628
82.595,27.134289,-0.024832,1.201941,0.405946
82.645,27.200744,-0.020086,1.202088,0.407518
82.695,27.269432,-0.01644,1.20222,0.407954
82.745,27.342643,-0.014265,1.20291,0.408501
82.796,27.413691,-0.01249,1.203954,0.408243
82.846,27.485965,-0.009615,1.203564,0.407954
82.896,27.556947,-0.007384,1.203579,0.407285
82.946,27.630413,-0.00633,1.203883,0.407214
82.996,27.709386,-0.005412,1.20472,0.406691
83.046,27.78532,-0.00418,1.205714,0.405936
83.096,27.862109,-0.002248,1.207767,0.405033
83.146,27.934555,0.000972,1.209831,0.404181
83.196,28.011858,0.004937,1.210749,0.403517
83.246,28.086054,0.007908,1.212899,0.402853
83.296,28.164559,0.010717,1.215079,0.402092
83.347,28.24298,0.014352,1.216681,0.40087
83.397,28.316543,0.018262,1.217599,0.399861
83.447,28.392806,0.021715,1.218364,0.399182
83.497,28.464595,0.024848,1.21802,0.399623
83.548,28.543203,0.026719,1.218126,0.400145
83.598,28.620799,0.028093,1.220464,0.400384
83.648,28.697973,0.030735,1.221599,0.401002
83.698,28.77597,0.033975,1.222335,0.401443
83.748,28.857125,0.036536,1.224038,0.40191
83.798,28.943616,0.039091,1.226011,0.40231
83.848,29.030059,0.041783,1.228008,0.402726
83.898,29.12094,0.043933,1.230726,0.402118
83.948,29.209199,0.046798,1.232181,0.401002
83.998,29.295714,0.049992,1.231182,0.40045
84.048,29.381974,0.051939,1.231167,0.399664
84.098,29.465791,0.053324,1.231385,0.398584
84.148,29.544717,0.054688,1.230924,0.39834
84.198,29.619843,0.05668,1.23025,0.397828
84.248,29.695444,0.058632,1.230523,0.396758
84.298,29.767664,0.061502,1.230315,0.396626
84.348,29.837952,0.06455,1.230057,0.397276
84.398,29.909447,0.066441,1.231431,0.39759
84.448,29.986066,0.068525,1.232795,0.397843
84.498,30.061504,0.070959,1.234078,0.399136
84.548,30.140256,0.073641,1.234793,0.39938
84.598,30.22006,0.075203,1.236293,0.400085
84.648,30.295517,0.077155,1.236527,0.401519
84.699,30.372012,0.079553,1.237287,0.402321
84.749,30.448614,0.08222,1.239964,0.402726
84.799,30.523133,0.086505,1.242297,0.402706
84.849,30.594094,0.090718,1.244082,0.403056
84.899,30.665461,0.094141,1.244928,0.402594
84.949,30.734907,0.098597,1.246632,0.402645
85,30.801855,0.103115,1.247768,0.402189
85.05,30.87247,0.106771,1.250242,0.401225
85.1,30.944521,0.109311,1.251525,0.399851
85.15,31.018117,0.110777,1.250841,0.398599
85.2,31.091833,0.110919,1.249421,0.398401
85.25,31.166691,0.112019,1.248305,0.397433
85.3,31.240202,0.114833,1.249345,0.396626
85.35,31.314462,0.115898,1.25007,0.396033
85.4,31.394789,0.118306,1.250364,0.395998
85.45,31.478289,0.121921,1.249532,0.396505
85.501,31.562964,0.12647,1.249563,0.398072
85.551,31.647509,0.13151,1.2508,0.399339
85.601,31.731876,0.137295,1.253295,0.400546
85.651,31.814706,0.142031,1.255946,0.402792
85.701,31.901465,0.145271,1.256844,0.405459
85.751,31.991929,0.14919,1.257402,0.407051
85.801,32.080055,0.152384,1.258411,0.409079
85.851,32.16435,0.15455,1.259668,0.410408
85.901,32.246823,0.15498,1.261468,0.410656
85.951,32.326173,0.156055,1.262259,0.410971
86.001,32.409476,0.157947,1.262198,0.410276
86.051,32.493828,0.160786,1.261706,0.40841
86.101,32.577706,0.163986,1.262685,0.406149
86.151,32.656042,0.167271,1.264698,0.404947
86.201,32.731546,0.170699,1.267091,0.402432
86.251,32.806065,0.174999,1.26914,0.400723
86.302,32.87993,0.180794,1.27095,0.399466
86.353,32.958793,0.186889,1.273216,0.398016
86.403,33.034179,0.190722,1.275417,0.397164
86.453,33.109095,0.19418,1.277881,0.396774
86.503,33.180135,0.19889,1.278713,0.396611
86.553,33.249811,0.203788,1.279392,0.396586
86.603,33.320345,0.20826,1.281004,0.397235
86.653,33.390389,0.211962,1.283854,0.396733
86.703,33.460672,0.216262,1.285497,0.397215
86.753,33.529154,0.219263,1.286972,0.398249
86.803,33.601543,0.223669,1.288646,0.399451
86.854,33.674543,0.226798,1.290831,0.400936
86.904,33.748488,0.22769,1.294066,0.402179
86.954,33.823372,0.227741,1.296008,0.402447
87.004,33.897306,0.227214,1.295734,0.40298
87.054,33.975685,0.227386,1.293473,0.404699
87.104,34.058389,0.225814,1.292945,0.404699
87.154,34.141114,0.224217,1.29289,0.403882
87.204,34.222574,0.223411,1.293163,0.403674
87.254,34.306144,0.224491,1.293123,0.403279
87.305,34.39576,0.2262,1.292626,0.403426
87.355,34.48891,0.228273,1.292286,0.404445
87.405,34.583829,0.232152,1.292443,0.404861
87.455,34.674261,0.235342,1.293894,0.405089
87.505,34.755149,0.239291,1.294451,0.406488
87.555,34.833408,0.243145,1.295257,0.407766
87.605,34.905268,0.245553,1.295415,0.408106
87.655,34.972485,0.245731,1.294913,0.408111
87.705,34.588055,0.246704,1.294461,0.407183
87.755,34.626819,0.247531,1.295202,0.405804
87.805,34.662031,0.245878,1.296794,0.404587
87.855,34.701698,0.244539,1.299329,0.403162
87.906,34.745804,0.24316,1.302133,0.401535
87.956,34.779147,0.242694,1.303862,0.401839
88.006,34.815843,0.241872,1.306199,0.401925
88.056,34.842248,0.243616,1.309439,0.402163
88.106,34.863402,0.244281,1.312771,0.403005
88.156,34.876807,0.245239,1.3156,0.403755
88.206,34.88683,0.247779,1.317441,0.404536
88.256,34.892712,0.249919,1.317527,0.404546
88.306,34.886286,0.251749,1.316883,0.404065
88.356,34.878442,0.252221,1.316513,0.401945
88.406,34.864928,0.253357,1.315722,0.400034
88.456,34.854244,0.252738,1.313531,0.398386
88.506,34.848029,0.252312,1.311569,0.39583
88.556,34.843666,0.251775,1.309287,0.393037
88.606,34.839303,0.249965,1.307467,0.390679
88.656,34.833521,0.248129,1.306108,0.389229
88.706,34.841158,0.24749,1.304704,0.387986
88.756,34.853699,0.24745,1.303025,0.38755
88.806,34.869615,0.248322,1.301023,0.38719
88.856,34.885523,0.249665,1.300232,0.387444
88.906,34.900771,0.252069,1.299126,0.389112
88.956,34.919495,0.25359,1.298558,0.391252
89.006,34.927765,0.256095,1.298077,0.392753
89.056,34.937012,0.258321,1.297605,0.393863
89.106,34.936795,0.259462,1.297417,0.395257
89.156,34.928527,0.26076,1.298492,0.395901
89.206,34.918298,0.259436,1.300805,0.396363
89.256,34.900227,0.256845,1.302949,0.395019
89.306,34.890752,0.2536,1.305013,0.392991
89.357,34.879204,0.251689,1.306559,0.391566
89.407,34.881383,0.250811,1.307893,0.390562
89.457,34.888464,0.250477,1.309145,0.390187
89.507,34.900444,0.250218,1.310814,0.389969
89.557,34.923413,0.250451,1.311539,0.390283
89.607,34.946257,0.252865,1.310996,0.391678
89.657,34.986145,0.257225,1.310388,0.394826
89.707,35.008406,0.261388,1.310149,0.397955
89.757,35.025662,0.264689,1.310672,0.400379
89.807,35.036835,0.265622,1.310859,0.402336
89.857,35.039655,0.266753,1.311878,0.403411
89.907,35.034666,0.267255,1.312426,0.403355
89.957,35.023274,0.267736,1.312776,0.403466
90.007,35.010468,0.2669,1.314023,0.402001
90.057,34.980605,0.264496,1.315336,0.399207
90.107,34.961587,0.261647,1.315823,0.396941
90.157,34.94691,0.259827,1.315336,0.394984
90.207,34.932335,0.260065,1.315235,0.394649
90.257,34.918515,0.259822,1.314059,0.395197
90.307,34.910243,0.260384,1.313039,0.397423
90.357,34.910896,0.259644,1.312152,0.398832
90.407,34.909372,0.259517,1.310195,0.401509
90.457,34.920583,0.259842,1.307721,0.40549
90.507,34.923195,0.259847,1.305743,0.408354
90.557,34.921672,0.257621,1.303685,0.410322
90.607,34.924718,0.253762,1.302878,0.410327
90.658,34.927548,0.249539,1.303477,0.410225
90.708,34.942125,0.244752,1.303593,0.408953
90.758,34.943321,0.241137,1.304202,0.408172
90.808,34.953108,0.238754,1.305206,0.406595
90.858,34.95463,0.23742,1.306174,0.404475
90.908,34.963109,0.23775,1.308005,0.403112
90.959,34.982017,0.239788,1.309946,0.403061
91.01,34.999286,0.242034,1.309754,0.40375
91.06,35.019368,0.245173,1.307132,0.403309
91.11,35.019693,0.248869,1.305708,0.403106
91.16,35.022298,0.251775,1.304009,0.402711
91.21,35.016004,0.253702,1.302407,0.403066
91.26,35.002977,0.25542,1.301241,0.403299
91.31,34.996354,0.256526,1.298528,0.403284
91.36,34.974411,0.257651,1.296616,0.401555
91.41,34.94691,0.259827,1.295602,0.400024
91.46,34.924718,0.261758,1.295886,0.39938
91.51,34.914053,0.262965,1.295318,0.398903
91.56,34.905453,0.264562,1.294649,0.39869
91.61,34.903493,0.26547,1.294598,0.398193
91.66,34.921019,0.265353,1.294548,0.398173
91.71,34.931573,0.265171,1.295496,0.398807
91.76,34.953869,0.265166,1.295673,0.401469
91.81,34.98017,0.264507,1.296414,0.403634
91.86,35.000046,0.263214,1.297412,0.406159
91.91,35.011662,0.263143,1.299192,0.407928
91.96,35.0185,0.262737,1.301945,0.409622
92.011,35.021538,0.263918,1.303421,0.410509
92.061,35.012748,0.265374,1.304592,0.410347
92.111,35.001566,0.266717,1.30518,0.409206
92.161,34.983538,0.26761,1.306742,0.406742
92.211,34.959848,0.269197,1.307802,0.404481
92.261,34.928744,0.272305,1.309221,0.40087
92.311,34.906868,0.273862,1.309936,0.398421
92.361,34.898158,0.276138,1.308496,0.395866
92.411,34.89598,0.276052,1.307883,0.394319
92.462,34.889118,0.276883,1.307533,0.393752
92.512,34.887702,0.277314,1.307863,0.39403
92.562,34.886613,0.277066,1.30766,0.394269
92.613,34.894019,0.275834,1.306777,0.394837
92.663,34.918407,0.273598,1.304749,0.397458
92.713,34.930159,0.272335,1.302305,0.399968
92.763,34.935489,0.270322,1.302356,0.401808
92.813,34.932226,0.27012,1.303264,0.403061
92.863,34.943212,0.269197,1.304379,0.403517
92.914,34.94691,0.268563,1.305332,0.403086
92.965,34.958978,0.269161,1.30623,0.402838
93.015,34.967783,0.269531,1.307974,0.402402
93.065,34.962674,0.269465,1.310966,0.400389
93.115,34.976476,0.269151,1.314804,0.398061
93.165,34.989729,0.269775,1.316766,0.397894
93.215,35.004497,0.270307,1.316761,0.39793
93.265,35.008948,0.270297,1.316001,0.398802
93.316,35.021213,0.26941,1.313906,0.400566
93.366,35.023383,0.266783,1.311574,0.403132
93.416,35.024034,0.265105,1.309054,0.405784
93.466,35.028157,0.263051,1.306559,0.409105
93.516,35.012639,0.261049,1.304095,0.411934
93.567,34.991684,0.256678,1.301727,0.412025
93.617,34.960174,0.251075,1.299334,0.412431
93.667,34.935054,0.246238,1.298026,0.411275
93.717,34.901642,0.242521,1.298285,0.409941
93.767,34.867762,0.241436,1.298584,0.407903
93.817,34.831885,0.239089,1.298492,0.40586
93.867,34.791274,0.23741,1.296774,0.403076
93.917,34.758052,0.235783,1.294624,0.401306
93.967,34.728081,0.2374,1.293427,0.401986
94.017,34.718121,0.23994,1.294132,0.402275
94.067,34.690197,0.241583,1.294172,0.404268
94.117,34.658413,0.242881,1.293965,0.404835
94.167,34.623416,0.241882,1.293594,0.405185
94.217,34.578055,0.242055,1.294091,0.404617
94.267,34.533515,0.241893,1.296256,0.404222
94.317,34.96082,0.241614,1.298371,0.402148
94.368,34.886005,0.239403,1.299917,0.399091
94.418,34.810789,0.236158,1.299958,0.395912
94.468,34.733332,0.233607,1.299233,0.392641
94.518,34.652415,0.230225,1.298102,0.391592
94.569,34.575065,0.227168,1.296591,0.391003
94.619,34.495648,0.223198,1.293965,0.390993
94.669,34.412473,0.219836,1.290081,0.391592
94.721,34.331684,0.216814,1.285771,0.393797
94.772,34.250328,0.21399,1.281375,0.39508
94.822,34.167822,0.212971,1.278302,0.396677
94.873,34.086187,0.210988,1.276355,0.398122
94.923,34.010385,0.209888,1.274149,0.398249
94.973,33.935511,0.209188,1.272811,0.398746
95.023,33.863522,0.209503,1.272228,0.399998
95.073,33.792032,0.209629,1.272532,0.40083
95.123,33.715704,0.208767,1.273409,0.400865
95.173,33.636923,0.208139,1.274798,0.402087
95.223,33.555784,0.20642,1.275244,0.40337
95.273,33.471543,0.20537,1.275939,0.404095
95.323,33.382449,0.204214,1.277425,0.405429
95.374,33.290927,0.203002,1.278621,0.405941
95.424,33.197001,0.200508,1.279346,0.406215
95.474,33.108315,0.196999,1.279884,0.407295
95.524,33.024176,0.192278,1.280477,0.40839
95.574,32.943349,0.18734,1.280335,0.409024
95.624,32.868239,0.182315,1.279727,0.40983
95.674,32.795182,0.17835,1.277638,0.411006
95.724,32.721032,0.174557,1.275833,0.411894
95.774,32.645388,0.170547,1.27385,0.412847
95.824,32.572809,0.167332,1.272344,0.412755
95.875,32.500209,0.16608,1.269834,0.411777
95.925,32.429109,0.167626,1.266599,0.411523
95.975,32.35959,0.168442,1.264292,0.411341
96.025,32.287451,0.168082,1.263456,0.410261
96.076,32.213642,0.166242,1.263795,0.40912
96.126,32.139782,0.164036,1.262477,0.407447
96.176,32.068072,0.16142,1.261169,0.406078
96.226,31.997104,0.158357,1.259693,0.405926
96.276,31.924337,0.153525,1.259354,0.405956
96.326,31.850139,0.146777,1.259775,0.405348
96.376,31.772589,0.141255,1.258705,0.404846
96.426,31.696646,0.138086,1.256195,0.404653
96.477,31.621578,0.135378,1.253335,0.404171
96.527,31.550448,0.132833,1.25185,0.404866
96.577,31.480798,0.130455,1.250861,0.405048
96.627,31.406932,0.128944,1.249147,0.404785
96.677,31.332721,0.126819,1.247398,0.404465
96.727,31.257046,0.126155,1.245354,0.404222
96.777,31.186059,0.125009,1.244437,0.403796
96.827,31.113933,0.122261,1.244538,0.403816
96.877,31.042692,0.119123,1.245004,0.403933
96.927,30.972318,0.115888,1.244477,0.403152
96.977,30.901094,0.113611,1.243559,0.40371
97.027,30.835101,0.110777,1.24396,0.404212
97.077,30.769559,0.109828,1.243412,0.404481
97.127,30.705535,0.108652,1.242606,0.404815
97.177,30.637856,0.106533,1.241825,0.404394
97.227,30.567593,0.10487,1.240933,0.403837
97.277,30.500107,0.10347,1.239032,0.403887
97.327,30.430199,0.10165,1.238251,0.404131
97.377,30.35893,0.098851,1.237921,0.402559
97.427,30.282753,0.095692,1.236937,0.400161
97.477,30.203744,0.091636,1.236222,0.397874
97.527,30.124628,0.086474,1.235862,0.395668
97.577,30.044192,0.082524,1.235817,0.395663
97.627,29.966606,0.078245,1.235208,0.395912
97.678,29.883508,0.074016,1.235148,0.395075
97.728,29.795921,0.070634,1.234179,0.394406
97.778,29.710454,0.067328,1.232688,0.39435
97.828,29.626766,0.06493,1.230736,0.395851
97.878,29.544897,0.063054,1.229261,0.397752
97.928,29.462671,0.062167,1.228759,0.399856
97.978,29.384507,0.06098,1.227927,0.400181
98.028,29.307197,0.060311,1.22707,0.399882
98.078,29.232956,0.059464,1.22596,0.400693
